\relax 
\@writefile{toc}{\contentsline {section}{\numberline {6.4}Ball.h File Reference}{70}{section.6.4}}
\newlabel{Ball_8h}{{6.4}{70}{Ball.h File Reference\relax }{section.6.4}{}}
\@writefile{toc}{\contentsline {subsection}{\numberline {6.4.1}Detailed Description}{70}{subsection.6.4.1}}
\@setckpt{Ball_8h}{
\setcounter{page}{71}
\setcounter{equation}{0}
\setcounter{enumi}{0}
\setcounter{enumii}{0}
\setcounter{enumiii}{0}
\setcounter{enumiv}{0}
\setcounter{footnote}{0}
\setcounter{mpfootnote}{0}
\setcounter{part}{0}
\setcounter{chapter}{6}
\setcounter{section}{4}
\setcounter{subsection}{1}
\setcounter{subsubsection}{0}
\setcounter{paragraph}{0}
\setcounter{subparagraph}{0}
\setcounter{figure}{0}
\setcounter{table}{0}
\setcounter{float@type}{8}
\setcounter{lstlisting}{0}
\setcounter{lstnumber}{1}
\setcounter{Item}{0}
\setcounter{Hfootnote}{0}
\setcounter{section@level}{2}
}
