\relax 
\@writefile{toc}{\contentsline {section}{\numberline {5.16}Vector Class Reference}{63}{section.5.16}}
\newlabel{classVector}{{5.16}{63}{Vector Class Reference\relax }{section.5.16}{}}
\@writefile{toc}{\contentsline {subsection}{\numberline {5.16.1}Constructor \& Destructor Documentation}{63}{subsection.5.16.1}}
\@writefile{toc}{\contentsline {subsubsection}{\numberline {5.16.1.1}Vector}{63}{subsubsection.5.16.1.1}}
\newlabel{classVector_aa78a42a470fd8886fea794405af0d302}{{5.16.1.1}{63}{Vector\relax }{subsubsection.5.16.1.1}{}}
\@writefile{toc}{\contentsline {subsection}{\numberline {5.16.2}Member Function Documentation}{64}{subsection.5.16.2}}
\@writefile{toc}{\contentsline {subsubsection}{\numberline {5.16.2.1}operator$\ast $}{64}{subsubsection.5.16.2.1}}
\newlabel{classVector_aace04a6af7e642f610240bcb193c6091}{{5.16.2.1}{64}{operator$\ast $\relax }{subsubsection.5.16.2.1}{}}
\@writefile{toc}{\contentsline {subsubsection}{\numberline {5.16.2.2}operator+}{64}{subsubsection.5.16.2.2}}
\newlabel{classVector_a8fe92f07c643acebe067cf73936faaea}{{5.16.2.2}{64}{operator+\relax }{subsubsection.5.16.2.2}{}}
\@writefile{toc}{\contentsline {subsubsection}{\numberline {5.16.2.3}operator==}{64}{subsubsection.5.16.2.3}}
\newlabel{classVector_a49b6eef617c22efd3f1a2cd62c50321e}{{5.16.2.3}{64}{operator==\relax }{subsubsection.5.16.2.3}{}}
\@writefile{toc}{\contentsline {subsubsection}{\numberline {5.16.2.4}randomVector}{64}{subsubsection.5.16.2.4}}
\newlabel{classVector_af841dcbb53dd822191177600fe40e407}{{5.16.2.4}{64}{randomVector\relax }{subsubsection.5.16.2.4}{}}
\@writefile{toc}{\contentsline {subsection}{\numberline {5.16.3}Member Data Documentation}{65}{subsection.5.16.3}}
\@writefile{toc}{\contentsline {subsubsection}{\numberline {5.16.3.1}x}{65}{subsubsection.5.16.3.1}}
\newlabel{classVector_aca49165049a1e21ae47afcfc078819ed}{{5.16.3.1}{65}{x\relax }{subsubsection.5.16.3.1}{}}
\@writefile{toc}{\contentsline {subsubsection}{\numberline {5.16.3.2}y}{65}{subsubsection.5.16.3.2}}
\newlabel{classVector_a81be9102fca6d9beea3efef522c4c09d}{{5.16.3.2}{65}{y\relax }{subsubsection.5.16.3.2}{}}
\@setckpt{classVector}{
\setcounter{page}{66}
\setcounter{equation}{0}
\setcounter{enumi}{0}
\setcounter{enumii}{0}
\setcounter{enumiii}{0}
\setcounter{enumiv}{0}
\setcounter{footnote}{0}
\setcounter{mpfootnote}{0}
\setcounter{part}{0}
\setcounter{chapter}{5}
\setcounter{section}{16}
\setcounter{subsection}{3}
\setcounter{subsubsection}{2}
\setcounter{paragraph}{0}
\setcounter{subparagraph}{0}
\setcounter{figure}{0}
\setcounter{table}{0}
\setcounter{float@type}{8}
\setcounter{lstlisting}{0}
\setcounter{lstnumber}{1}
\setcounter{Item}{0}
\setcounter{Hfootnote}{0}
\setcounter{section@level}{3}
}
