\relax 
\@writefile{toc}{\contentsline {section}{\numberline {5.9}PlayerPaddle Class Reference}{41}{section.5.9}}
\newlabel{classPlayerPaddle}{{5.9}{41}{PlayerPaddle Class Reference\relax }{section.5.9}{}}
\@writefile{toc}{\contentsline {subsection}{\numberline {5.9.1}Constructor \& Destructor Documentation}{42}{subsection.5.9.1}}
\@writefile{toc}{\contentsline {subsubsection}{\numberline {5.9.1.1}PlayerPaddle}{42}{subsubsection.5.9.1.1}}
\newlabel{classPlayerPaddle_ae98d9c90563813e609c70526730dd24a}{{5.9.1.1}{42}{PlayerPaddle\relax }{subsubsection.5.9.1.1}{}}
\@writefile{toc}{\contentsline {subsection}{\numberline {5.9.2}Member Function Documentation}{42}{subsection.5.9.2}}
\@writefile{toc}{\contentsline {subsubsection}{\numberline {5.9.2.1}BottomRight}{42}{subsubsection.5.9.2.1}}
\newlabel{classPaddle_a9504681f17bc1265137bdb0694696326}{{5.9.2.1}{42}{BottomRight\relax }{subsubsection.5.9.2.1}{}}
\@writefile{toc}{\contentsline {subsubsection}{\numberline {5.9.2.2}calcCornerPoints}{43}{subsubsection.5.9.2.2}}
\newlabel{classPaddle_ac8e3c821f3feeb09652deca0aa82655b}{{5.9.2.2}{43}{calcCornerPoints\relax }{subsubsection.5.9.2.2}{}}
\@writefile{toc}{\contentsline {subsubsection}{\numberline {5.9.2.3}checkKey}{43}{subsubsection.5.9.2.3}}
\newlabel{classPlayerPaddle_abdd41ff12548d971dcbb323c7e01f6af}{{5.9.2.3}{43}{checkKey\relax }{subsubsection.5.9.2.3}{}}
\@writefile{toc}{\contentsline {subsubsection}{\numberline {5.9.2.4}draw}{43}{subsubsection.5.9.2.4}}
\newlabel{classPaddle_a3818a9f3371c9bb11893e18555621160}{{5.9.2.4}{43}{draw\relax }{subsubsection.5.9.2.4}{}}
\@writefile{toc}{\contentsline {subsubsection}{\numberline {5.9.2.5}getBallPosition}{43}{subsubsection.5.9.2.5}}
\newlabel{classPaddle_a667f2aab5faa46f2eaa7045ebbce5539}{{5.9.2.5}{43}{getBallPosition\relax }{subsubsection.5.9.2.5}{}}
\@writefile{toc}{\contentsline {subsubsection}{\numberline {5.9.2.6}getPaddleSpeed}{43}{subsubsection.5.9.2.6}}
\newlabel{classPlayerPaddle_a0ccced61361cc0e99ef54f80f19743f3}{{5.9.2.6}{43}{getPaddleSpeed\relax }{subsubsection.5.9.2.6}{}}
\@writefile{toc}{\contentsline {subsubsection}{\numberline {5.9.2.7}getPos}{44}{subsubsection.5.9.2.7}}
\newlabel{classPaddle_a6977ec3bd25532ce4a44a3ed2de9af65}{{5.9.2.7}{44}{getPos\relax }{subsubsection.5.9.2.7}{}}
\@writefile{toc}{\contentsline {subsubsection}{\numberline {5.9.2.8}getSize}{44}{subsubsection.5.9.2.8}}
\newlabel{classPaddle_aaad7b34ed8bd348ace80184ff46592f6}{{5.9.2.8}{44}{getSize\relax }{subsubsection.5.9.2.8}{}}
\@writefile{toc}{\contentsline {subsubsection}{\numberline {5.9.2.9}move}{44}{subsubsection.5.9.2.9}}
\newlabel{classPlayerPaddle_a7ba047b2b0431832a78775e0c7ce82dd}{{5.9.2.9}{44}{move\relax }{subsubsection.5.9.2.9}{}}
\@writefile{toc}{\contentsline {subsubsection}{\numberline {5.9.2.10}setDownFlag}{44}{subsubsection.5.9.2.10}}
\newlabel{classPlayerPaddle_addd1cffcf94c4f90a3bbe9a7c2f81bbf}{{5.9.2.10}{44}{setDownFlag\relax }{subsubsection.5.9.2.10}{}}
\@writefile{toc}{\contentsline {subsubsection}{\numberline {5.9.2.11}setUpFlag}{44}{subsubsection.5.9.2.11}}
\newlabel{classPlayerPaddle_a263e6f0e77d0b525c1b5db489fe29c6b}{{5.9.2.11}{44}{setUpFlag\relax }{subsubsection.5.9.2.11}{}}
\@writefile{toc}{\contentsline {subsubsection}{\numberline {5.9.2.12}TopLeft}{45}{subsubsection.5.9.2.12}}
\newlabel{classPaddle_a0aba55a826267d78a407b73d84c64b32}{{5.9.2.12}{45}{TopLeft\relax }{subsubsection.5.9.2.12}{}}
\@writefile{toc}{\contentsline {subsection}{\numberline {5.9.3}Member Data Documentation}{45}{subsection.5.9.3}}
\@writefile{toc}{\contentsline {subsubsection}{\numberline {5.9.3.1}bottomRightCorner}{45}{subsubsection.5.9.3.1}}
\newlabel{classPaddle_a16edfcfdc29191bbb5afa9f090950804}{{5.9.3.1}{45}{bottomRightCorner\relax }{subsubsection.5.9.3.1}{}}
\@writefile{toc}{\contentsline {subsubsection}{\numberline {5.9.3.2}DOWN\_\discretionary {-}{}{}ARROW\_\discretionary {-}{}{}PRESS}{45}{subsubsection.5.9.3.2}}
\newlabel{classPlayerPaddle_ad8ee068ddcd529e93ce4ae8e95b9719a}{{5.9.3.2}{45}{DOWN\_\-ARROW\_\-PRESS\relax }{subsubsection.5.9.3.2}{}}
\@writefile{toc}{\contentsline {subsubsection}{\numberline {5.9.3.3}DOWN\_\discretionary {-}{}{}KEY}{45}{subsubsection.5.9.3.3}}
\newlabel{classPlayerPaddle_adcfe761408851694136af1b896ccd8b4}{{5.9.3.3}{45}{DOWN\_\-KEY\relax }{subsubsection.5.9.3.3}{}}
\@writefile{toc}{\contentsline {subsubsection}{\numberline {5.9.3.4}origin}{45}{subsubsection.5.9.3.4}}
\newlabel{classPaddle_a05195085442f2ed8722a1e236a32647a}{{5.9.3.4}{45}{origin\relax }{subsubsection.5.9.3.4}{}}
\@writefile{toc}{\contentsline {subsubsection}{\numberline {5.9.3.5}paddleSpeed}{45}{subsubsection.5.9.3.5}}
\newlabel{classPaddle_a89de31427eb9aafb7332d576445d0b68}{{5.9.3.5}{45}{paddleSpeed\relax }{subsubsection.5.9.3.5}{}}
\@writefile{toc}{\contentsline {subsubsection}{\numberline {5.9.3.6}size}{45}{subsubsection.5.9.3.6}}
\newlabel{classPaddle_a11cbfb3d700dc72fc5ea013ae3eaa2a7}{{5.9.3.6}{45}{size\relax }{subsubsection.5.9.3.6}{}}
\@writefile{toc}{\contentsline {subsubsection}{\numberline {5.9.3.7}topLeftCorner}{45}{subsubsection.5.9.3.7}}
\newlabel{classPaddle_a5e57315f81bf0312c54288352ea02b02}{{5.9.3.7}{45}{topLeftCorner\relax }{subsubsection.5.9.3.7}{}}
\@writefile{toc}{\contentsline {subsubsection}{\numberline {5.9.3.8}UP\_\discretionary {-}{}{}ARROW\_\discretionary {-}{}{}PRESS}{45}{subsubsection.5.9.3.8}}
\newlabel{classPlayerPaddle_af6c36f973c846929803d63920f7086c9}{{5.9.3.8}{45}{UP\_\-ARROW\_\-PRESS\relax }{subsubsection.5.9.3.8}{}}
\@writefile{toc}{\contentsline {subsubsection}{\numberline {5.9.3.9}UP\_\discretionary {-}{}{}KEY}{45}{subsubsection.5.9.3.9}}
\newlabel{classPlayerPaddle_a32b31f7dd2e528b20d5349781a8c87c5}{{5.9.3.9}{45}{UP\_\-KEY\relax }{subsubsection.5.9.3.9}{}}
\@setckpt{classPlayerPaddle}{
\setcounter{page}{46}
\setcounter{equation}{0}
\setcounter{enumi}{0}
\setcounter{enumii}{0}
\setcounter{enumiii}{0}
\setcounter{enumiv}{0}
\setcounter{footnote}{0}
\setcounter{mpfootnote}{0}
\setcounter{part}{0}
\setcounter{chapter}{5}
\setcounter{section}{9}
\setcounter{subsection}{3}
\setcounter{subsubsection}{9}
\setcounter{paragraph}{0}
\setcounter{subparagraph}{0}
\setcounter{figure}{0}
\setcounter{table}{0}
\setcounter{float@type}{8}
\setcounter{lstlisting}{0}
\setcounter{lstnumber}{1}
\setcounter{Item}{0}
\setcounter{Hfootnote}{0}
\setcounter{section@level}{3}
}
