\relax 
\@writefile{toc}{\contentsline {section}{\numberline {5.5}Drawable Class Reference}{25}{section.5.5}}
\newlabel{classDrawable}{{5.5}{25}{Drawable Class Reference\relax }{section.5.5}{}}
\@writefile{toc}{\contentsline {subsection}{\numberline {5.5.1}Member Function Documentation}{25}{subsection.5.5.1}}
\@writefile{toc}{\contentsline {subsubsection}{\numberline {5.5.1.1}draw}{25}{subsubsection.5.5.1.1}}
\newlabel{classDrawable_ad695958afd77034dc0b02e130c2f11a5}{{5.5.1.1}{25}{draw\relax }{subsubsection.5.5.1.1}{}}
\@setckpt{classDrawable}{
\setcounter{page}{26}
\setcounter{equation}{0}
\setcounter{enumi}{0}
\setcounter{enumii}{0}
\setcounter{enumiii}{0}
\setcounter{enumiv}{0}
\setcounter{footnote}{0}
\setcounter{mpfootnote}{0}
\setcounter{part}{0}
\setcounter{chapter}{5}
\setcounter{section}{5}
\setcounter{subsection}{1}
\setcounter{subsubsection}{1}
\setcounter{paragraph}{0}
\setcounter{subparagraph}{0}
\setcounter{figure}{0}
\setcounter{table}{0}
\setcounter{float@type}{8}
\setcounter{lstlisting}{0}
\setcounter{lstnumber}{1}
\setcounter{Item}{0}
\setcounter{Hfootnote}{0}
\setcounter{section@level}{3}
}
