\relax 
\@writefile{toc}{\contentsline {section}{\numberline {5.10}Point Class Reference}{46}{section.5.10}}
\newlabel{classPoint}{{5.10}{46}{Point Class Reference\relax }{section.5.10}{}}
\@writefile{toc}{\contentsline {subsection}{\numberline {5.10.1}Constructor \& Destructor Documentation}{46}{subsection.5.10.1}}
\@writefile{toc}{\contentsline {subsubsection}{\numberline {5.10.1.1}Point}{46}{subsubsection.5.10.1.1}}
\newlabel{classPoint_a14c6995a8b23c0f7c4cf91686a5f3feb}{{5.10.1.1}{46}{Point\relax }{subsubsection.5.10.1.1}{}}
\@writefile{toc}{\contentsline {subsection}{\numberline {5.10.2}Member Function Documentation}{46}{subsection.5.10.2}}
\@writefile{toc}{\contentsline {subsubsection}{\numberline {5.10.2.1}operator+}{46}{subsubsection.5.10.2.1}}
\newlabel{classPoint_a863eb9e840f8a70ab262f57dd5012f9e}{{5.10.2.1}{46}{operator+\relax }{subsubsection.5.10.2.1}{}}
\@writefile{toc}{\contentsline {subsection}{\numberline {5.10.3}Member Data Documentation}{47}{subsection.5.10.3}}
\@writefile{toc}{\contentsline {subsubsection}{\numberline {5.10.3.1}x}{47}{subsubsection.5.10.3.1}}
\newlabel{classPoint_a05dfe2dfbde813ad234b514f30e662f1}{{5.10.3.1}{47}{x\relax }{subsubsection.5.10.3.1}{}}
\@writefile{toc}{\contentsline {subsubsection}{\numberline {5.10.3.2}y}{47}{subsubsection.5.10.3.2}}
\newlabel{classPoint_a6101960c8d2d4e8ea1d32c9234bbeb8d}{{5.10.3.2}{47}{y\relax }{subsubsection.5.10.3.2}{}}
\@setckpt{classPoint}{
\setcounter{page}{48}
\setcounter{equation}{0}
\setcounter{enumi}{0}
\setcounter{enumii}{0}
\setcounter{enumiii}{0}
\setcounter{enumiv}{0}
\setcounter{footnote}{0}
\setcounter{mpfootnote}{0}
\setcounter{part}{0}
\setcounter{chapter}{5}
\setcounter{section}{10}
\setcounter{subsection}{3}
\setcounter{subsubsection}{2}
\setcounter{paragraph}{0}
\setcounter{subparagraph}{0}
\setcounter{figure}{0}
\setcounter{table}{0}
\setcounter{float@type}{8}
\setcounter{lstlisting}{0}
\setcounter{lstnumber}{1}
\setcounter{Item}{0}
\setcounter{Hfootnote}{0}
\setcounter{section@level}{3}
}
