\relax 
\@writefile{toc}{\contentsline {section}{\numberline {5.11}Score Class Reference}{48}{section.5.11}}
\newlabel{classScore}{{5.11}{48}{Score Class Reference\relax }{section.5.11}{}}
\@writefile{toc}{\contentsline {subsection}{\numberline {5.11.1}Constructor \& Destructor Documentation}{49}{subsection.5.11.1}}
\@writefile{toc}{\contentsline {subsubsection}{\numberline {5.11.1.1}Score}{49}{subsubsection.5.11.1.1}}
\newlabel{classScore_a65c1552db646cfb861912baac7eabc00}{{5.11.1.1}{49}{Score\relax }{subsubsection.5.11.1.1}{}}
\@writefile{toc}{\contentsline {subsection}{\numberline {5.11.2}Member Function Documentation}{49}{subsection.5.11.2}}
\@writefile{toc}{\contentsline {subsubsection}{\numberline {5.11.2.1}draw}{49}{subsubsection.5.11.2.1}}
\newlabel{classScore_ab246da4b7df440d2d843006dd8eef73e}{{5.11.2.1}{49}{draw\relax }{subsubsection.5.11.2.1}{}}
\@writefile{toc}{\contentsline {subsubsection}{\numberline {5.11.2.2}getMaxScore}{50}{subsubsection.5.11.2.2}}
\newlabel{classScore_a7087c15e0445c88c70c7c18cccd6944e}{{5.11.2.2}{50}{getMaxScore\relax }{subsubsection.5.11.2.2}{}}
\@writefile{toc}{\contentsline {subsubsection}{\numberline {5.11.2.3}getScore}{50}{subsubsection.5.11.2.3}}
\newlabel{classScore_a8627c93270c188a3fd28a25b1d07a9e7}{{5.11.2.3}{50}{getScore\relax }{subsubsection.5.11.2.3}{}}
\@writefile{toc}{\contentsline {subsubsection}{\numberline {5.11.2.4}isMax}{50}{subsubsection.5.11.2.4}}
\newlabel{classScore_a01c257823f2c0230ecd60b321dada7a9}{{5.11.2.4}{50}{isMax\relax }{subsubsection.5.11.2.4}{}}
\@writefile{toc}{\contentsline {subsubsection}{\numberline {5.11.2.5}move}{50}{subsubsection.5.11.2.5}}
\newlabel{classScore_ae4ea9f76dfdbce6edeafb3be08204570}{{5.11.2.5}{50}{move\relax }{subsubsection.5.11.2.5}{}}
\@writefile{toc}{\contentsline {subsubsection}{\numberline {5.11.2.6}resetScore}{50}{subsubsection.5.11.2.6}}
\newlabel{classScore_ade936f4b478e9b5b5188e5232b6f1a0f}{{5.11.2.6}{50}{resetScore\relax }{subsubsection.5.11.2.6}{}}
\@writefile{toc}{\contentsline {subsubsection}{\numberline {5.11.2.7}samplesLoaded}{51}{subsubsection.5.11.2.7}}
\newlabel{classAudio_aab14ce14bdef1c8bec00f25ceaa69a87}{{5.11.2.7}{51}{samplesLoaded\relax }{subsubsection.5.11.2.7}{}}
\@writefile{toc}{\contentsline {subsubsection}{\numberline {5.11.2.8}scoreUp}{51}{subsubsection.5.11.2.8}}
\newlabel{classScore_ac7d96905892ad305afeffcf45a45b973}{{5.11.2.8}{51}{scoreUp\relax }{subsubsection.5.11.2.8}{}}
\@writefile{toc}{\contentsline {subsubsection}{\numberline {5.11.2.9}scoreUp2}{51}{subsubsection.5.11.2.9}}
\newlabel{classScore_af0172b7a81a04776a92a902aa8b641ac}{{5.11.2.9}{51}{scoreUp2\relax }{subsubsection.5.11.2.9}{}}
\@writefile{toc}{\contentsline {subsubsection}{\numberline {5.11.2.10}setMaxScore}{51}{subsubsection.5.11.2.10}}
\newlabel{classScore_a43c091b810102b0d59ba61647aff0845}{{5.11.2.10}{51}{setMaxScore\relax }{subsubsection.5.11.2.10}{}}
\@writefile{toc}{\contentsline {subsubsection}{\numberline {5.11.2.11}setScore}{52}{subsubsection.5.11.2.11}}
\newlabel{classScore_aebcf2a0dd1a7a2b31072d9b2a9a4cb9f}{{5.11.2.11}{52}{setScore\relax }{subsubsection.5.11.2.11}{}}
\@writefile{toc}{\contentsline {subsection}{\numberline {5.11.3}Member Data Documentation}{52}{subsection.5.11.3}}
\@writefile{toc}{\contentsline {subsubsection}{\numberline {5.11.3.1}bkgrnd\_\discretionary {-}{}{}music\_\discretionary {-}{}{}inst}{52}{subsubsection.5.11.3.1}}
\newlabel{classAudio_af7f18669302755ae29304decbfee72f9}{{5.11.3.1}{52}{bkgrnd\_\-music\_\-inst\relax }{subsubsection.5.11.3.1}{}}
\@writefile{toc}{\contentsline {subsubsection}{\numberline {5.11.3.2}fon}{52}{subsubsection.5.11.3.2}}
\newlabel{classScore_a4ea0303995a9afd958753cc2dad66b12}{{5.11.3.2}{52}{fon\relax }{subsubsection.5.11.3.2}{}}
\@writefile{toc}{\contentsline {subsubsection}{\numberline {5.11.3.3}maxsc}{52}{subsubsection.5.11.3.3}}
\newlabel{classScore_ab701bdddfdb5f0e25ac141bffe548fb5}{{5.11.3.3}{52}{maxsc\relax }{subsubsection.5.11.3.3}{}}
\@writefile{toc}{\contentsline {subsubsection}{\numberline {5.11.3.4}netTrigger}{52}{subsubsection.5.11.3.4}}
\newlabel{classScore_a075eb6d349fbadcff4302881adb5a62f}{{5.11.3.4}{52}{netTrigger\relax }{subsubsection.5.11.3.4}{}}
\@writefile{toc}{\contentsline {subsubsection}{\numberline {5.11.3.5}p\_\discretionary {-}{}{}hit\_\discretionary {-}{}{}inst}{52}{subsubsection.5.11.3.5}}
\newlabel{classAudio_ac2dd6ca92b1738fe452a941214458688}{{5.11.3.5}{52}{p\_\-hit\_\-inst\relax }{subsubsection.5.11.3.5}{}}
\@writefile{toc}{\contentsline {subsubsection}{\numberline {5.11.3.6}sc}{52}{subsubsection.5.11.3.6}}
\newlabel{classScore_ab174d2768ac0b510030dd59fc9286ac8}{{5.11.3.6}{52}{sc\relax }{subsubsection.5.11.3.6}{}}
\@writefile{toc}{\contentsline {subsubsection}{\numberline {5.11.3.7}score\_\discretionary {-}{}{}inst}{52}{subsubsection.5.11.3.7}}
\newlabel{classAudio_a169a86b3d312f2bf0e0a2e85d6980398}{{5.11.3.7}{52}{score\_\-inst\relax }{subsubsection.5.11.3.7}{}}
\@writefile{toc}{\contentsline {subsubsection}{\numberline {5.11.3.8}w\_\discretionary {-}{}{}hit\_\discretionary {-}{}{}inst}{52}{subsubsection.5.11.3.8}}
\newlabel{classAudio_a2c69165789e43bc04b7025be913b7e33}{{5.11.3.8}{52}{w\_\-hit\_\-inst\relax }{subsubsection.5.11.3.8}{}}
\@writefile{toc}{\contentsline {subsubsection}{\numberline {5.11.3.9}x}{53}{subsubsection.5.11.3.9}}
\newlabel{classScore_a8c0ea478f10c7c6476ea0f035a20ab42}{{5.11.3.9}{53}{x\relax }{subsubsection.5.11.3.9}{}}
\@writefile{toc}{\contentsline {subsubsection}{\numberline {5.11.3.10}y}{53}{subsubsection.5.11.3.10}}
\newlabel{classScore_a5470ea0c2066cde76a52a7c5aa4a777f}{{5.11.3.10}{53}{y\relax }{subsubsection.5.11.3.10}{}}
\@setckpt{classScore}{
\setcounter{page}{54}
\setcounter{equation}{0}
\setcounter{enumi}{0}
\setcounter{enumii}{0}
\setcounter{enumiii}{0}
\setcounter{enumiv}{0}
\setcounter{footnote}{0}
\setcounter{mpfootnote}{0}
\setcounter{part}{0}
\setcounter{chapter}{5}
\setcounter{section}{11}
\setcounter{subsection}{3}
\setcounter{subsubsection}{10}
\setcounter{paragraph}{0}
\setcounter{subparagraph}{0}
\setcounter{figure}{0}
\setcounter{table}{0}
\setcounter{float@type}{8}
\setcounter{lstlisting}{0}
\setcounter{lstnumber}{1}
\setcounter{Item}{0}
\setcounter{Hfootnote}{0}
\setcounter{section@level}{3}
}
