\relax 
\@writefile{toc}{\contentsline {section}{\numberline {5.15}Updateable Class Reference}{62}{section.5.15}}
\newlabel{classUpdateable}{{5.15}{62}{Updateable Class Reference\relax }{section.5.15}{}}
\@writefile{toc}{\contentsline {subsection}{\numberline {5.15.1}Member Function Documentation}{62}{subsection.5.15.1}}
\@writefile{toc}{\contentsline {subsubsection}{\numberline {5.15.1.1}move}{62}{subsubsection.5.15.1.1}}
\newlabel{classUpdateable_af96b60bd75718242ed55acff74d91a65}{{5.15.1.1}{62}{move\relax }{subsubsection.5.15.1.1}{}}
\@setckpt{classUpdateable}{
\setcounter{page}{63}
\setcounter{equation}{0}
\setcounter{enumi}{0}
\setcounter{enumii}{0}
\setcounter{enumiii}{0}
\setcounter{enumiv}{0}
\setcounter{footnote}{0}
\setcounter{mpfootnote}{0}
\setcounter{part}{0}
\setcounter{chapter}{5}
\setcounter{section}{15}
\setcounter{subsection}{1}
\setcounter{subsubsection}{1}
\setcounter{paragraph}{0}
\setcounter{subparagraph}{0}
\setcounter{figure}{0}
\setcounter{table}{0}
\setcounter{float@type}{8}
\setcounter{lstlisting}{0}
\setcounter{lstnumber}{1}
\setcounter{Item}{0}
\setcounter{Hfootnote}{0}
\setcounter{section@level}{3}
}
