\relax 
\@writefile{toc}{\contentsline {section}{\numberline {5.2}Ball Class Reference}{12}{section.5.2}}
\newlabel{classBall}{{5.2}{12}{Ball Class Reference\relax }{section.5.2}{}}
\@writefile{toc}{\contentsline {subsection}{\numberline {5.2.1}Constructor \& Destructor Documentation}{13}{subsection.5.2.1}}
\@writefile{toc}{\contentsline {subsubsection}{\numberline {5.2.1.1}Ball}{13}{subsubsection.5.2.1.1}}
\newlabel{classBall_aba768f2ce61e000a70432bdfd726d040}{{5.2.1.1}{13}{Ball\relax }{subsubsection.5.2.1.1}{}}
\@writefile{toc}{\contentsline {subsection}{\numberline {5.2.2}Member Function Documentation}{13}{subsection.5.2.2}}
\@writefile{toc}{\contentsline {subsubsection}{\numberline {5.2.2.1}collisionCheck}{13}{subsubsection.5.2.2.1}}
\newlabel{classBall_a2bcf678a97f1755698beef925c35d658}{{5.2.2.1}{13}{collisionCheck\relax }{subsubsection.5.2.2.1}{}}
\@writefile{toc}{\contentsline {subsubsection}{\numberline {5.2.2.2}draw}{13}{subsubsection.5.2.2.2}}
\newlabel{classBall_a4881a598b5f41b836fad7945c40177fd}{{5.2.2.2}{13}{draw\relax }{subsubsection.5.2.2.2}{}}
\@writefile{toc}{\contentsline {subsubsection}{\numberline {5.2.2.3}getBallSpeed}{14}{subsubsection.5.2.2.3}}
\newlabel{classBall_a8b6c458f4b27a5ba0a5d6fd41b50d91e}{{5.2.2.3}{14}{getBallSpeed\relax }{subsubsection.5.2.2.3}{}}
\@writefile{toc}{\contentsline {subsubsection}{\numberline {5.2.2.4}GetPos}{14}{subsubsection.5.2.2.4}}
\newlabel{classBall_aaa5c43aff929eafcd2d61f79c0355ad0}{{5.2.2.4}{14}{GetPos\relax }{subsubsection.5.2.2.4}{}}
\@writefile{toc}{\contentsline {subsubsection}{\numberline {5.2.2.5}getRadius}{14}{subsubsection.5.2.2.5}}
\newlabel{classBall_a5904b986ce5fe8645c53c6a5a40ff058}{{5.2.2.5}{14}{getRadius\relax }{subsubsection.5.2.2.5}{}}
\@writefile{toc}{\contentsline {subsubsection}{\numberline {5.2.2.6}HorzBounce}{14}{subsubsection.5.2.2.6}}
\newlabel{classBall_affd8a6a7fae74c5da90398b3502421df}{{5.2.2.6}{14}{HorzBounce\relax }{subsubsection.5.2.2.6}{}}
\@writefile{toc}{\contentsline {subsubsection}{\numberline {5.2.2.7}move}{15}{subsubsection.5.2.2.7}}
\newlabel{classBall_a5a8783af46f0c94f8a6160bb93685c54}{{5.2.2.7}{15}{move\relax }{subsubsection.5.2.2.7}{}}
\@writefile{toc}{\contentsline {subsubsection}{\numberline {5.2.2.8}resetBall}{15}{subsubsection.5.2.2.8}}
\newlabel{classBall_a4beb47faf1d5acbaf41bb7f31117ae4a}{{5.2.2.8}{15}{resetBall\relax }{subsubsection.5.2.2.8}{}}
\@writefile{toc}{\contentsline {subsubsection}{\numberline {5.2.2.9}samplesLoaded}{15}{subsubsection.5.2.2.9}}
\newlabel{classAudio_aab14ce14bdef1c8bec00f25ceaa69a87}{{5.2.2.9}{15}{samplesLoaded\relax }{subsubsection.5.2.2.9}{}}
\@writefile{toc}{\contentsline {subsubsection}{\numberline {5.2.2.10}VertBounce}{16}{subsubsection.5.2.2.10}}
\newlabel{classBall_a9248c01c002faa49149cfa19e460e616}{{5.2.2.10}{16}{VertBounce\relax }{subsubsection.5.2.2.10}{}}
\@writefile{toc}{\contentsline {subsection}{\numberline {5.2.3}Member Data Documentation}{16}{subsection.5.2.3}}
\@writefile{toc}{\contentsline {subsubsection}{\numberline {5.2.3.1}bkgrnd\_\discretionary {-}{}{}music\_\discretionary {-}{}{}inst}{16}{subsubsection.5.2.3.1}}
\newlabel{classAudio_af7f18669302755ae29304decbfee72f9}{{5.2.3.1}{16}{bkgrnd\_\-music\_\-inst\relax }{subsubsection.5.2.3.1}{}}
\@writefile{toc}{\contentsline {subsubsection}{\numberline {5.2.3.2}buffer}{16}{subsubsection.5.2.3.2}}
\newlabel{classBall_a555e4b8cda6c52a3edcf987521b96049}{{5.2.3.2}{16}{buffer\relax }{subsubsection.5.2.3.2}{}}
\@writefile{toc}{\contentsline {subsubsection}{\numberline {5.2.3.3}F}{16}{subsubsection.5.2.3.3}}
\newlabel{classBall_a43c601217ccb0f6f5d4182a900b43b3c}{{5.2.3.3}{16}{F\relax }{subsubsection.5.2.3.3}{}}
\@writefile{toc}{\contentsline {subsubsection}{\numberline {5.2.3.4}maxSpeed}{16}{subsubsection.5.2.3.4}}
\newlabel{classBall_ac1d84bbd590ff3858f0900b7864870b6}{{5.2.3.4}{16}{maxSpeed\relax }{subsubsection.5.2.3.4}{}}
\@writefile{toc}{\contentsline {subsubsection}{\numberline {5.2.3.5}minSpeed}{16}{subsubsection.5.2.3.5}}
\newlabel{classBall_ac8d6a6e9118e702071cdc5e7d781a206}{{5.2.3.5}{16}{minSpeed\relax }{subsubsection.5.2.3.5}{}}
\@writefile{toc}{\contentsline {subsubsection}{\numberline {5.2.3.6}origin}{16}{subsubsection.5.2.3.6}}
\newlabel{classBall_a2fffa8a40429f766c2736519635eaddd}{{5.2.3.6}{16}{origin\relax }{subsubsection.5.2.3.6}{}}
\@writefile{toc}{\contentsline {subsubsection}{\numberline {5.2.3.7}p\_\discretionary {-}{}{}hit\_\discretionary {-}{}{}inst}{16}{subsubsection.5.2.3.7}}
\newlabel{classAudio_ac2dd6ca92b1738fe452a941214458688}{{5.2.3.7}{16}{p\_\-hit\_\-inst\relax }{subsubsection.5.2.3.7}{}}
\@writefile{toc}{\contentsline {subsubsection}{\numberline {5.2.3.8}radius}{16}{subsubsection.5.2.3.8}}
\newlabel{classBall_ab5b6ed9fe327aace1b4e4a6473838bc6}{{5.2.3.8}{16}{radius\relax }{subsubsection.5.2.3.8}{}}
\@writefile{toc}{\contentsline {subsubsection}{\numberline {5.2.3.9}score\_\discretionary {-}{}{}inst}{16}{subsubsection.5.2.3.9}}
\newlabel{classAudio_a169a86b3d312f2bf0e0a2e85d6980398}{{5.2.3.9}{16}{score\_\-inst\relax }{subsubsection.5.2.3.9}{}}
\@writefile{toc}{\contentsline {subsubsection}{\numberline {5.2.3.10}speed}{16}{subsubsection.5.2.3.10}}
\newlabel{classBall_a47fb908b33471dda2173db2e15d5c012}{{5.2.3.10}{16}{speed\relax }{subsubsection.5.2.3.10}{}}
\@writefile{toc}{\contentsline {subsubsection}{\numberline {5.2.3.11}timecheck}{17}{subsubsection.5.2.3.11}}
\newlabel{classBall_a97fb3a3999fe4076f1310731983afe63}{{5.2.3.11}{17}{timecheck\relax }{subsubsection.5.2.3.11}{}}
\@writefile{toc}{\contentsline {subsubsection}{\numberline {5.2.3.12}timeE}{17}{subsubsection.5.2.3.12}}
\newlabel{classBall_ac21a17fba88956a693f5263f28ca8b34}{{5.2.3.12}{17}{timeE\relax }{subsubsection.5.2.3.12}{}}
\@writefile{toc}{\contentsline {subsubsection}{\numberline {5.2.3.13}w\_\discretionary {-}{}{}hit\_\discretionary {-}{}{}inst}{17}{subsubsection.5.2.3.13}}
\newlabel{classAudio_a2c69165789e43bc04b7025be913b7e33}{{5.2.3.13}{17}{w\_\-hit\_\-inst\relax }{subsubsection.5.2.3.13}{}}
\@setckpt{classBall}{
\setcounter{page}{18}
\setcounter{equation}{0}
\setcounter{enumi}{0}
\setcounter{enumii}{0}
\setcounter{enumiii}{0}
\setcounter{enumiv}{0}
\setcounter{footnote}{0}
\setcounter{mpfootnote}{0}
\setcounter{part}{0}
\setcounter{chapter}{5}
\setcounter{section}{2}
\setcounter{subsection}{3}
\setcounter{subsubsection}{13}
\setcounter{paragraph}{0}
\setcounter{subparagraph}{0}
\setcounter{figure}{0}
\setcounter{table}{0}
\setcounter{float@type}{8}
\setcounter{lstlisting}{0}
\setcounter{lstnumber}{1}
\setcounter{Item}{0}
\setcounter{Hfootnote}{0}
\setcounter{section@level}{3}
}
