\relax 
\@writefile{toc}{\contentsline {section}{\numberline {5.8}Paddle Class Reference}{36}{section.5.8}}
\newlabel{classPaddle}{{5.8}{36}{Paddle Class Reference\relax }{section.5.8}{}}
\@writefile{toc}{\contentsline {subsection}{\numberline {5.8.1}Constructor \& Destructor Documentation}{37}{subsection.5.8.1}}
\@writefile{toc}{\contentsline {subsubsection}{\numberline {5.8.1.1}Paddle}{37}{subsubsection.5.8.1.1}}
\newlabel{classPaddle_aadc71cb5735705eb6d31f3ff6c7e0d07}{{5.8.1.1}{37}{Paddle\relax }{subsubsection.5.8.1.1}{}}
\@writefile{toc}{\contentsline {subsection}{\numberline {5.8.2}Member Function Documentation}{37}{subsection.5.8.2}}
\@writefile{toc}{\contentsline {subsubsection}{\numberline {5.8.2.1}BottomRight}{37}{subsubsection.5.8.2.1}}
\newlabel{classPaddle_a9504681f17bc1265137bdb0694696326}{{5.8.2.1}{37}{BottomRight\relax }{subsubsection.5.8.2.1}{}}
\@writefile{toc}{\contentsline {subsubsection}{\numberline {5.8.2.2}calcCornerPoints}{37}{subsubsection.5.8.2.2}}
\newlabel{classPaddle_ac8e3c821f3feeb09652deca0aa82655b}{{5.8.2.2}{37}{calcCornerPoints\relax }{subsubsection.5.8.2.2}{}}
\@writefile{toc}{\contentsline {subsubsection}{\numberline {5.8.2.3}checkKey}{38}{subsubsection.5.8.2.3}}
\newlabel{classPaddle_a5073e7459f9bc34095b2b4e8cea5ee5e}{{5.8.2.3}{38}{checkKey\relax }{subsubsection.5.8.2.3}{}}
\@writefile{toc}{\contentsline {subsubsection}{\numberline {5.8.2.4}draw}{38}{subsubsection.5.8.2.4}}
\newlabel{classPaddle_a3818a9f3371c9bb11893e18555621160}{{5.8.2.4}{38}{draw\relax }{subsubsection.5.8.2.4}{}}
\@writefile{toc}{\contentsline {subsubsection}{\numberline {5.8.2.5}getBallPosition}{38}{subsubsection.5.8.2.5}}
\newlabel{classPaddle_a667f2aab5faa46f2eaa7045ebbce5539}{{5.8.2.5}{38}{getBallPosition\relax }{subsubsection.5.8.2.5}{}}
\@writefile{toc}{\contentsline {subsubsection}{\numberline {5.8.2.6}getPaddleSpeed}{38}{subsubsection.5.8.2.6}}
\newlabel{classPaddle_a879070b9e789b08e106c70240ffe2301}{{5.8.2.6}{38}{getPaddleSpeed\relax }{subsubsection.5.8.2.6}{}}
\@writefile{toc}{\contentsline {subsubsection}{\numberline {5.8.2.7}getPos}{38}{subsubsection.5.8.2.7}}
\newlabel{classPaddle_a6977ec3bd25532ce4a44a3ed2de9af65}{{5.8.2.7}{38}{getPos\relax }{subsubsection.5.8.2.7}{}}
\@writefile{toc}{\contentsline {subsubsection}{\numberline {5.8.2.8}getSize}{39}{subsubsection.5.8.2.8}}
\newlabel{classPaddle_aaad7b34ed8bd348ace80184ff46592f6}{{5.8.2.8}{39}{getSize\relax }{subsubsection.5.8.2.8}{}}
\@writefile{toc}{\contentsline {subsubsection}{\numberline {5.8.2.9}move}{39}{subsubsection.5.8.2.9}}
\newlabel{classPaddle_ae25806865654ada0ef5b0ce29c45ce41}{{5.8.2.9}{39}{move\relax }{subsubsection.5.8.2.9}{}}
\@writefile{toc}{\contentsline {subsubsection}{\numberline {5.8.2.10}setDownFlag}{39}{subsubsection.5.8.2.10}}
\newlabel{classPaddle_a851e978ac296832c22de380d2a07fe3f}{{5.8.2.10}{39}{setDownFlag\relax }{subsubsection.5.8.2.10}{}}
\@writefile{toc}{\contentsline {subsubsection}{\numberline {5.8.2.11}setUpFlag}{39}{subsubsection.5.8.2.11}}
\newlabel{classPaddle_a5b9462892ce633d5c3a605f391389cfc}{{5.8.2.11}{39}{setUpFlag\relax }{subsubsection.5.8.2.11}{}}
\@writefile{toc}{\contentsline {subsubsection}{\numberline {5.8.2.12}TopLeft}{39}{subsubsection.5.8.2.12}}
\newlabel{classPaddle_a0aba55a826267d78a407b73d84c64b32}{{5.8.2.12}{39}{TopLeft\relax }{subsubsection.5.8.2.12}{}}
\@writefile{toc}{\contentsline {subsection}{\numberline {5.8.3}Member Data Documentation}{40}{subsection.5.8.3}}
\@writefile{toc}{\contentsline {subsubsection}{\numberline {5.8.3.1}bottomRightCorner}{40}{subsubsection.5.8.3.1}}
\newlabel{classPaddle_a16edfcfdc29191bbb5afa9f090950804}{{5.8.3.1}{40}{bottomRightCorner\relax }{subsubsection.5.8.3.1}{}}
\@writefile{toc}{\contentsline {subsubsection}{\numberline {5.8.3.2}origin}{40}{subsubsection.5.8.3.2}}
\newlabel{classPaddle_a05195085442f2ed8722a1e236a32647a}{{5.8.3.2}{40}{origin\relax }{subsubsection.5.8.3.2}{}}
\@writefile{toc}{\contentsline {subsubsection}{\numberline {5.8.3.3}paddleSpeed}{40}{subsubsection.5.8.3.3}}
\newlabel{classPaddle_a89de31427eb9aafb7332d576445d0b68}{{5.8.3.3}{40}{paddleSpeed\relax }{subsubsection.5.8.3.3}{}}
\@writefile{toc}{\contentsline {subsubsection}{\numberline {5.8.3.4}size}{40}{subsubsection.5.8.3.4}}
\newlabel{classPaddle_a11cbfb3d700dc72fc5ea013ae3eaa2a7}{{5.8.3.4}{40}{size\relax }{subsubsection.5.8.3.4}{}}
\@writefile{toc}{\contentsline {subsubsection}{\numberline {5.8.3.5}topLeftCorner}{40}{subsubsection.5.8.3.5}}
\newlabel{classPaddle_a5e57315f81bf0312c54288352ea02b02}{{5.8.3.5}{40}{topLeftCorner\relax }{subsubsection.5.8.3.5}{}}
\@setckpt{classPaddle}{
\setcounter{page}{41}
\setcounter{equation}{0}
\setcounter{enumi}{0}
\setcounter{enumii}{0}
\setcounter{enumiii}{0}
\setcounter{enumiv}{0}
\setcounter{footnote}{0}
\setcounter{mpfootnote}{0}
\setcounter{part}{0}
\setcounter{chapter}{5}
\setcounter{section}{8}
\setcounter{subsection}{3}
\setcounter{subsubsection}{5}
\setcounter{paragraph}{0}
\setcounter{subparagraph}{0}
\setcounter{figure}{0}
\setcounter{table}{0}
\setcounter{float@type}{8}
\setcounter{lstlisting}{0}
\setcounter{lstnumber}{1}
\setcounter{Item}{0}
\setcounter{Hfootnote}{0}
\setcounter{section@level}{3}
}
