\relax 
\@writefile{toc}{\contentsline {section}{\numberline {5.13}Simulator Class Reference}{57}{section.5.13}}
\newlabel{classSimulator}{{5.13}{57}{Simulator Class Reference\relax }{section.5.13}{}}
\@writefile{toc}{\contentsline {subsection}{\numberline {5.13.1}Detailed Description}{57}{subsection.5.13.1}}
\@writefile{toc}{\contentsline {subsection}{\numberline {5.13.2}Constructor \& Destructor Documentation}{58}{subsection.5.13.2}}
\@writefile{toc}{\contentsline {subsubsection}{\numberline {5.13.2.1}Simulator}{58}{subsubsection.5.13.2.1}}
\newlabel{classSimulator_ab8e52e54c3ef937c990e7188c9d69945}{{5.13.2.1}{58}{Simulator\relax }{subsubsection.5.13.2.1}{}}
\@writefile{toc}{\contentsline {subsubsection}{\numberline {5.13.2.2}$\sim $Simulator}{58}{subsubsection.5.13.2.2}}
\newlabel{classSimulator_a0f49aa04f42060a785adf77346b9de9f}{{5.13.2.2}{58}{$\sim $Simulator\relax }{subsubsection.5.13.2.2}{}}
\@writefile{toc}{\contentsline {subsection}{\numberline {5.13.3}Member Function Documentation}{58}{subsection.5.13.3}}
\@writefile{toc}{\contentsline {subsubsection}{\numberline {5.13.3.1}collision}{58}{subsubsection.5.13.3.1}}
\newlabel{classSimulator_a55c9cf5c68734ea797ec73eab6b9d248}{{5.13.3.1}{58}{collision\relax }{subsubsection.5.13.3.1}{}}
\@writefile{toc}{\contentsline {subsubsection}{\numberline {5.13.3.2}drawModel}{58}{subsubsection.5.13.3.2}}
\newlabel{classSimulator_ad47f95a2a5201a46f760c14d63d84725}{{5.13.3.2}{58}{drawModel\relax }{subsubsection.5.13.3.2}{}}
\@writefile{toc}{\contentsline {subsubsection}{\numberline {5.13.3.3}getQueue}{58}{subsubsection.5.13.3.3}}
\newlabel{classSimulator_a8ac1fb25c3e78f14fd672413aeb986e0}{{5.13.3.3}{58}{getQueue\relax }{subsubsection.5.13.3.3}{}}
\@writefile{toc}{\contentsline {subsubsection}{\numberline {5.13.3.4}playerinput}{58}{subsubsection.5.13.3.4}}
\newlabel{classSimulator_a6b6afee2d0e6ccf0e94b4b8bf93efb1b}{{5.13.3.4}{58}{playerinput\relax }{subsubsection.5.13.3.4}{}}
\@writefile{toc}{\contentsline {subsubsection}{\numberline {5.13.3.5}run}{58}{subsubsection.5.13.3.5}}
\newlabel{classSimulator_aa2de7e32b04cc3e8fc60aec23997621b}{{5.13.3.5}{58}{run\relax }{subsubsection.5.13.3.5}{}}
\@writefile{toc}{\contentsline {subsubsection}{\numberline {5.13.3.6}updateModel}{58}{subsubsection.5.13.3.6}}
\newlabel{classSimulator_a78e300570318b9cd65f52b9547dee070}{{5.13.3.6}{58}{updateModel\relax }{subsubsection.5.13.3.6}{}}
\@writefile{toc}{\contentsline {subsection}{\numberline {5.13.4}Member Data Documentation}{59}{subsection.5.13.4}}
\@writefile{toc}{\contentsline {subsubsection}{\numberline {5.13.4.1}eventQueue}{59}{subsubsection.5.13.4.1}}
\newlabel{classSimulator_a66fdcbc38c75103adb81c8eb956e4e1c}{{5.13.4.1}{59}{eventQueue\relax }{subsubsection.5.13.4.1}{}}
\@writefile{toc}{\contentsline {subsubsection}{\numberline {5.13.4.2}framesPerSec}{59}{subsubsection.5.13.4.2}}
\newlabel{classSimulator_a0eaa1a80a589640a2b601c10e3b07882}{{5.13.4.2}{59}{framesPerSec\relax }{subsubsection.5.13.4.2}{}}
\@writefile{toc}{\contentsline {subsubsection}{\numberline {5.13.4.3}gameOver}{59}{subsubsection.5.13.4.3}}
\newlabel{classSimulator_ab424ac47e311b946e5d1f31fa1084b33}{{5.13.4.3}{59}{gameOver\relax }{subsubsection.5.13.4.3}{}}
\@writefile{toc}{\contentsline {subsubsection}{\numberline {5.13.4.4}timer}{59}{subsubsection.5.13.4.4}}
\newlabel{classSimulator_ad526164a62c28095f0282b53945aa120}{{5.13.4.4}{59}{timer\relax }{subsubsection.5.13.4.4}{}}
\@setckpt{classSimulator}{
\setcounter{page}{60}
\setcounter{equation}{0}
\setcounter{enumi}{0}
\setcounter{enumii}{0}
\setcounter{enumiii}{0}
\setcounter{enumiv}{0}
\setcounter{footnote}{0}
\setcounter{mpfootnote}{0}
\setcounter{part}{0}
\setcounter{chapter}{5}
\setcounter{section}{13}
\setcounter{subsection}{4}
\setcounter{subsubsection}{4}
\setcounter{paragraph}{0}
\setcounter{subparagraph}{0}
\setcounter{figure}{0}
\setcounter{table}{0}
\setcounter{float@type}{8}
\setcounter{lstlisting}{0}
\setcounter{lstnumber}{1}
\setcounter{Item}{0}
\setcounter{Hfootnote}{0}
\setcounter{section@level}{3}
}
