\relax 
\@writefile{toc}{\contentsline {section}{\numberline {5.4}Display Class Reference}{23}{section.5.4}}
\newlabel{classDisplay}{{5.4}{23}{Display Class Reference\relax }{section.5.4}{}}
\@writefile{toc}{\contentsline {subsection}{\numberline {5.4.1}Detailed Description}{23}{subsection.5.4.1}}
\@writefile{toc}{\contentsline {subsection}{\numberline {5.4.2}Constructor \& Destructor Documentation}{23}{subsection.5.4.2}}
\@writefile{toc}{\contentsline {subsubsection}{\numberline {5.4.2.1}Display}{23}{subsubsection.5.4.2.1}}
\newlabel{classDisplay_a0b933deaf4610198cbc5f89097cb077b}{{5.4.2.1}{23}{Display\relax }{subsubsection.5.4.2.1}{}}
\@writefile{toc}{\contentsline {subsubsection}{\numberline {5.4.2.2}$\sim $Display}{24}{subsubsection.5.4.2.2}}
\newlabel{classDisplay_ac2607a6bb236c55547a4223d40d85d1f}{{5.4.2.2}{24}{$\sim $Display\relax }{subsubsection.5.4.2.2}{}}
\@writefile{toc}{\contentsline {subsection}{\numberline {5.4.3}Member Function Documentation}{24}{subsection.5.4.3}}
\@writefile{toc}{\contentsline {subsubsection}{\numberline {5.4.3.1}getAllegroDisplay}{24}{subsubsection.5.4.3.1}}
\newlabel{classDisplay_adb0dbf3d9ba0d6e8a00f2ff00b48b28c}{{5.4.3.1}{24}{getAllegroDisplay\relax }{subsubsection.5.4.3.1}{}}
\@writefile{toc}{\contentsline {subsubsection}{\numberline {5.4.3.2}getH}{24}{subsubsection.5.4.3.2}}
\newlabel{classDisplay_a9878946b8495c15a2292bbc73800a19e}{{5.4.3.2}{24}{getH\relax }{subsubsection.5.4.3.2}{}}
\@writefile{toc}{\contentsline {subsubsection}{\numberline {5.4.3.3}getW}{24}{subsubsection.5.4.3.3}}
\newlabel{classDisplay_a0805ad3718988656faee6652a5fa0d87}{{5.4.3.3}{24}{getW\relax }{subsubsection.5.4.3.3}{}}
\@writefile{toc}{\contentsline {subsection}{\numberline {5.4.4}Member Data Documentation}{24}{subsection.5.4.4}}
\@writefile{toc}{\contentsline {subsubsection}{\numberline {5.4.4.1}display}{24}{subsubsection.5.4.4.1}}
\newlabel{classDisplay_a9bae38dcb3346b7d4fc5718824e7d50b}{{5.4.4.1}{24}{display\relax }{subsubsection.5.4.4.1}{}}
\@writefile{toc}{\contentsline {subsubsection}{\numberline {5.4.4.2}height}{24}{subsubsection.5.4.4.2}}
\newlabel{classDisplay_a9446c52846cfb434f0940f9fad9f8e88}{{5.4.4.2}{24}{height\relax }{subsubsection.5.4.4.2}{}}
\@writefile{toc}{\contentsline {subsubsection}{\numberline {5.4.4.3}width}{24}{subsubsection.5.4.4.3}}
\newlabel{classDisplay_ad5f5299547950a967d70cbf50f429b5a}{{5.4.4.3}{24}{width\relax }{subsubsection.5.4.4.3}{}}
\@setckpt{classDisplay}{
\setcounter{page}{25}
\setcounter{equation}{0}
\setcounter{enumi}{0}
\setcounter{enumii}{0}
\setcounter{enumiii}{0}
\setcounter{enumiv}{0}
\setcounter{footnote}{0}
\setcounter{mpfootnote}{0}
\setcounter{part}{0}
\setcounter{chapter}{5}
\setcounter{section}{4}
\setcounter{subsection}{4}
\setcounter{subsubsection}{3}
\setcounter{paragraph}{0}
\setcounter{subparagraph}{0}
\setcounter{figure}{0}
\setcounter{table}{0}
\setcounter{float@type}{8}
\setcounter{lstlisting}{0}
\setcounter{lstnumber}{1}
\setcounter{Item}{0}
\setcounter{Hfootnote}{0}
\setcounter{section@level}{3}
}
