\relax 
\@writefile{toc}{\contentsline {section}{\numberline {5.14}Tests Class Reference}{60}{section.5.14}}
\newlabel{classTests}{{5.14}{60}{Tests Class Reference\relax }{section.5.14}{}}
\@writefile{toc}{\contentsline {subsection}{\numberline {5.14.1}Member Function Documentation}{61}{subsection.5.14.1}}
\@writefile{toc}{\contentsline {subsubsection}{\numberline {5.14.1.1}CPPUNIT\_\discretionary {-}{}{}TEST}{61}{subsubsection.5.14.1.1}}
\newlabel{classTests_ab5343a672f7d91b2c79233836060a7dd}{{5.14.1.1}{61}{CPPUNIT\_\-TEST\relax }{subsubsection.5.14.1.1}{}}
\@writefile{toc}{\contentsline {subsubsection}{\numberline {5.14.1.2}CPPUNIT\_\discretionary {-}{}{}TEST}{61}{subsubsection.5.14.1.2}}
\newlabel{classTests_a7de0f88bb0d8f987799b22f7b75e6a2f}{{5.14.1.2}{61}{CPPUNIT\_\-TEST\relax }{subsubsection.5.14.1.2}{}}
\@writefile{toc}{\contentsline {subsubsection}{\numberline {5.14.1.3}CPPUNIT\_\discretionary {-}{}{}TEST}{61}{subsubsection.5.14.1.3}}
\newlabel{classTests_af313d1f2b53c61676bed5b5e52e3bfc5}{{5.14.1.3}{61}{CPPUNIT\_\-TEST\relax }{subsubsection.5.14.1.3}{}}
\@writefile{toc}{\contentsline {subsubsection}{\numberline {5.14.1.4}CPPUNIT\_\discretionary {-}{}{}TEST}{61}{subsubsection.5.14.1.4}}
\newlabel{classTests_a4e4c896281dd20ee1e0e11939db11243}{{5.14.1.4}{61}{CPPUNIT\_\-TEST\relax }{subsubsection.5.14.1.4}{}}
\@writefile{toc}{\contentsline {subsubsection}{\numberline {5.14.1.5}CPPUNIT\_\discretionary {-}{}{}TEST}{61}{subsubsection.5.14.1.5}}
\newlabel{classTests_a258769d661cb89d52b93c726d4b52c83}{{5.14.1.5}{61}{CPPUNIT\_\-TEST\relax }{subsubsection.5.14.1.5}{}}
\@writefile{toc}{\contentsline {subsubsection}{\numberline {5.14.1.6}CPPUNIT\_\discretionary {-}{}{}TEST}{61}{subsubsection.5.14.1.6}}
\newlabel{classTests_af626b05bf4c52df6143c3e2f8010b840}{{5.14.1.6}{61}{CPPUNIT\_\-TEST\relax }{subsubsection.5.14.1.6}{}}
\@writefile{toc}{\contentsline {subsubsection}{\numberline {5.14.1.7}CPPUNIT\_\discretionary {-}{}{}TEST}{61}{subsubsection.5.14.1.7}}
\newlabel{classTests_a26894c7e44e481d3554fef991c6cf948}{{5.14.1.7}{61}{CPPUNIT\_\-TEST\relax }{subsubsection.5.14.1.7}{}}
\@writefile{toc}{\contentsline {subsubsection}{\numberline {5.14.1.8}CPPUNIT\_\discretionary {-}{}{}TEST\_\discretionary {-}{}{}SUITE}{61}{subsubsection.5.14.1.8}}
\newlabel{classTests_a5c60802a42fc5c26c09117cb796f0504}{{5.14.1.8}{61}{CPPUNIT\_\-TEST\_\-SUITE\relax }{subsubsection.5.14.1.8}{}}
\@writefile{toc}{\contentsline {subsubsection}{\numberline {5.14.1.9}CPPUNIT\_\discretionary {-}{}{}TEST\_\discretionary {-}{}{}SUITE\_\discretionary {-}{}{}END}{61}{subsubsection.5.14.1.9}}
\newlabel{classTests_aac41a1f8a1ba51404bdf821eb5834d81}{{5.14.1.9}{61}{CPPUNIT\_\-TEST\_\-SUITE\_\-END\relax }{subsubsection.5.14.1.9}{}}
\@writefile{toc}{\contentsline {subsubsection}{\numberline {5.14.1.10}sampleLoadTest}{61}{subsubsection.5.14.1.10}}
\newlabel{classTests_acbb172fd19abc2e48fa7f7e7e9c81e7b}{{5.14.1.10}{61}{sampleLoadTest\relax }{subsubsection.5.14.1.10}{}}
\@writefile{toc}{\contentsline {subsubsection}{\numberline {5.14.1.11}setUp}{61}{subsubsection.5.14.1.11}}
\newlabel{classTests_ad68802ac3cf243eb8aaba0d4210369e0}{{5.14.1.11}{61}{setUp\relax }{subsubsection.5.14.1.11}{}}
\@writefile{toc}{\contentsline {subsubsection}{\numberline {5.14.1.12}tearDown}{61}{subsubsection.5.14.1.12}}
\newlabel{classTests_a6962d70a2f5622822ab35a6b8b12592e}{{5.14.1.12}{61}{tearDown\relax }{subsubsection.5.14.1.12}{}}
\@writefile{toc}{\contentsline {subsubsection}{\numberline {5.14.1.13}testHorzBounce}{61}{subsubsection.5.14.1.13}}
\newlabel{classTests_a59aa6fc44eacc040cf82cbeda8c75575}{{5.14.1.13}{61}{testHorzBounce\relax }{subsubsection.5.14.1.13}{}}
\@writefile{toc}{\contentsline {subsubsection}{\numberline {5.14.1.14}testMove}{61}{subsubsection.5.14.1.14}}
\newlabel{classTests_ac55728d70462a30f00680ef4df11f40a}{{5.14.1.14}{61}{testMove\relax }{subsubsection.5.14.1.14}{}}
\@writefile{toc}{\contentsline {subsubsection}{\numberline {5.14.1.15}testResetBall}{61}{subsubsection.5.14.1.15}}
\newlabel{classTests_a2d8048959880827e882832e2b8ffe589}{{5.14.1.15}{61}{testResetBall\relax }{subsubsection.5.14.1.15}{}}
\@writefile{toc}{\contentsline {subsubsection}{\numberline {5.14.1.16}testScore}{61}{subsubsection.5.14.1.16}}
\newlabel{classTests_a8f7ba56e8cd73ce1bcdc5d5a2586520d}{{5.14.1.16}{61}{testScore\relax }{subsubsection.5.14.1.16}{}}
\@writefile{toc}{\contentsline {subsubsection}{\numberline {5.14.1.17}testVerticalBottom}{61}{subsubsection.5.14.1.17}}
\newlabel{classTests_a421de396a3651d8df5849ae4cf6aa810}{{5.14.1.17}{61}{testVerticalBottom\relax }{subsubsection.5.14.1.17}{}}
\@writefile{toc}{\contentsline {subsubsection}{\numberline {5.14.1.18}testVerticalTop}{61}{subsubsection.5.14.1.18}}
\newlabel{classTests_ab1c81e409d1a6a2591ae9beb5c24e3ea}{{5.14.1.18}{61}{testVerticalTop\relax }{subsubsection.5.14.1.18}{}}
\@writefile{toc}{\contentsline {subsection}{\numberline {5.14.2}Member Data Documentation}{61}{subsection.5.14.2}}
\@writefile{toc}{\contentsline {subsubsection}{\numberline {5.14.2.1}a}{61}{subsubsection.5.14.2.1}}
\newlabel{classTests_a2451c22895b04b1020eed790bbc4b03f}{{5.14.2.1}{61}{a\relax }{subsubsection.5.14.2.1}{}}
\@writefile{toc}{\contentsline {subsubsection}{\numberline {5.14.2.2}b}{61}{subsubsection.5.14.2.2}}
\newlabel{classTests_a21cf088be1d059b1ef8ff9ec70e666e9}{{5.14.2.2}{61}{b\relax }{subsubsection.5.14.2.2}{}}
\@writefile{toc}{\contentsline {subsubsection}{\numberline {5.14.2.3}b2}{61}{subsubsection.5.14.2.3}}
\newlabel{classTests_aacf84b22e6a5a6e677300bc1eb4958b6}{{5.14.2.3}{61}{b2\relax }{subsubsection.5.14.2.3}{}}
\@writefile{toc}{\contentsline {subsubsection}{\numberline {5.14.2.4}p}{61}{subsubsection.5.14.2.4}}
\newlabel{classTests_a44f380a9343f2cc3d2a35c4b7acbd323}{{5.14.2.4}{61}{p\relax }{subsubsection.5.14.2.4}{}}
\@writefile{toc}{\contentsline {subsubsection}{\numberline {5.14.2.5}s}{61}{subsubsection.5.14.2.5}}
\newlabel{classTests_a33d2a1b441d1b8172c065e7fe23af9fc}{{5.14.2.5}{61}{s\relax }{subsubsection.5.14.2.5}{}}
\@setckpt{classTests}{
\setcounter{page}{62}
\setcounter{equation}{0}
\setcounter{enumi}{0}
\setcounter{enumii}{0}
\setcounter{enumiii}{0}
\setcounter{enumiv}{0}
\setcounter{footnote}{0}
\setcounter{mpfootnote}{0}
\setcounter{part}{0}
\setcounter{chapter}{5}
\setcounter{section}{14}
\setcounter{subsection}{2}
\setcounter{subsubsection}{5}
\setcounter{paragraph}{0}
\setcounter{subparagraph}{0}
\setcounter{figure}{0}
\setcounter{table}{0}
\setcounter{float@type}{8}
\setcounter{lstlisting}{0}
\setcounter{lstnumber}{1}
\setcounter{Item}{0}
\setcounter{Hfootnote}{0}
\setcounter{section@level}{3}
}
