\relax 
\@writefile{toc}{\contentsline {section}{\numberline {5.7}Net Class Reference}{31}{section.5.7}}
\newlabel{classNet}{{5.7}{31}{Net Class Reference\relax }{section.5.7}{}}
\@writefile{toc}{\contentsline {subsection}{\numberline {5.7.1}Constructor \& Destructor Documentation}{32}{subsection.5.7.1}}
\@writefile{toc}{\contentsline {subsubsection}{\numberline {5.7.1.1}Net}{32}{subsubsection.5.7.1.1}}
\newlabel{classNet_a74ff7d0b3039c7bac82a6471faca2667}{{5.7.1.1}{32}{Net\relax }{subsubsection.5.7.1.1}{}}
\@writefile{toc}{\contentsline {subsection}{\numberline {5.7.2}Member Function Documentation}{32}{subsection.5.7.2}}
\@writefile{toc}{\contentsline {subsubsection}{\numberline {5.7.2.1}BottomRight}{32}{subsubsection.5.7.2.1}}
\newlabel{classPaddle_a9504681f17bc1265137bdb0694696326}{{5.7.2.1}{32}{BottomRight\relax }{subsubsection.5.7.2.1}{}}
\@writefile{toc}{\contentsline {subsubsection}{\numberline {5.7.2.2}calcCornerPoints}{32}{subsubsection.5.7.2.2}}
\newlabel{classPaddle_ac8e3c821f3feeb09652deca0aa82655b}{{5.7.2.2}{32}{calcCornerPoints\relax }{subsubsection.5.7.2.2}{}}
\@writefile{toc}{\contentsline {subsubsection}{\numberline {5.7.2.3}checkKey}{33}{subsubsection.5.7.2.3}}
\newlabel{classPaddle_a5073e7459f9bc34095b2b4e8cea5ee5e}{{5.7.2.3}{33}{checkKey\relax }{subsubsection.5.7.2.3}{}}
\@writefile{toc}{\contentsline {subsubsection}{\numberline {5.7.2.4}draw}{33}{subsubsection.5.7.2.4}}
\newlabel{classNet_a567b01fb1252f70aa53f77cab5685c48}{{5.7.2.4}{33}{draw\relax }{subsubsection.5.7.2.4}{}}
\@writefile{toc}{\contentsline {subsubsection}{\numberline {5.7.2.5}getBallPosition}{33}{subsubsection.5.7.2.5}}
\newlabel{classPaddle_a667f2aab5faa46f2eaa7045ebbce5539}{{5.7.2.5}{33}{getBallPosition\relax }{subsubsection.5.7.2.5}{}}
\@writefile{toc}{\contentsline {subsubsection}{\numberline {5.7.2.6}getPaddleSpeed}{33}{subsubsection.5.7.2.6}}
\newlabel{classPaddle_a879070b9e789b08e106c70240ffe2301}{{5.7.2.6}{33}{getPaddleSpeed\relax }{subsubsection.5.7.2.6}{}}
\@writefile{toc}{\contentsline {subsubsection}{\numberline {5.7.2.7}getPos}{33}{subsubsection.5.7.2.7}}
\newlabel{classPaddle_a6977ec3bd25532ce4a44a3ed2de9af65}{{5.7.2.7}{33}{getPos\relax }{subsubsection.5.7.2.7}{}}
\@writefile{toc}{\contentsline {subsubsection}{\numberline {5.7.2.8}getSize}{34}{subsubsection.5.7.2.8}}
\newlabel{classPaddle_aaad7b34ed8bd348ace80184ff46592f6}{{5.7.2.8}{34}{getSize\relax }{subsubsection.5.7.2.8}{}}
\@writefile{toc}{\contentsline {subsubsection}{\numberline {5.7.2.9}move}{34}{subsubsection.5.7.2.9}}
\newlabel{classPaddle_ae25806865654ada0ef5b0ce29c45ce41}{{5.7.2.9}{34}{move\relax }{subsubsection.5.7.2.9}{}}
\@writefile{toc}{\contentsline {subsubsection}{\numberline {5.7.2.10}setDownFlag}{34}{subsubsection.5.7.2.10}}
\newlabel{classPaddle_a851e978ac296832c22de380d2a07fe3f}{{5.7.2.10}{34}{setDownFlag\relax }{subsubsection.5.7.2.10}{}}
\@writefile{toc}{\contentsline {subsubsection}{\numberline {5.7.2.11}setUpFlag}{34}{subsubsection.5.7.2.11}}
\newlabel{classPaddle_a5b9462892ce633d5c3a605f391389cfc}{{5.7.2.11}{34}{setUpFlag\relax }{subsubsection.5.7.2.11}{}}
\@writefile{toc}{\contentsline {subsubsection}{\numberline {5.7.2.12}TopLeft}{34}{subsubsection.5.7.2.12}}
\newlabel{classPaddle_a0aba55a826267d78a407b73d84c64b32}{{5.7.2.12}{34}{TopLeft\relax }{subsubsection.5.7.2.12}{}}
\@writefile{toc}{\contentsline {subsection}{\numberline {5.7.3}Member Data Documentation}{35}{subsection.5.7.3}}
\@writefile{toc}{\contentsline {subsubsection}{\numberline {5.7.3.1}bottomRightCorner}{35}{subsubsection.5.7.3.1}}
\newlabel{classPaddle_a16edfcfdc29191bbb5afa9f090950804}{{5.7.3.1}{35}{bottomRightCorner\relax }{subsubsection.5.7.3.1}{}}
\@writefile{toc}{\contentsline {subsubsection}{\numberline {5.7.3.2}elapsedTime}{35}{subsubsection.5.7.3.2}}
\newlabel{classNet_a304843cdd4396233f2dfe032467eb794}{{5.7.3.2}{35}{elapsedTime\relax }{subsubsection.5.7.3.2}{}}
\@writefile{toc}{\contentsline {subsubsection}{\numberline {5.7.3.3}origin}{35}{subsubsection.5.7.3.3}}
\newlabel{classPaddle_a05195085442f2ed8722a1e236a32647a}{{5.7.3.3}{35}{origin\relax }{subsubsection.5.7.3.3}{}}
\@writefile{toc}{\contentsline {subsubsection}{\numberline {5.7.3.4}paddleSpeed}{35}{subsubsection.5.7.3.4}}
\newlabel{classPaddle_a89de31427eb9aafb7332d576445d0b68}{{5.7.3.4}{35}{paddleSpeed\relax }{subsubsection.5.7.3.4}{}}
\@writefile{toc}{\contentsline {subsubsection}{\numberline {5.7.3.5}size}{35}{subsubsection.5.7.3.5}}
\newlabel{classPaddle_a11cbfb3d700dc72fc5ea013ae3eaa2a7}{{5.7.3.5}{35}{size\relax }{subsubsection.5.7.3.5}{}}
\@writefile{toc}{\contentsline {subsubsection}{\numberline {5.7.3.6}topLeftCorner}{35}{subsubsection.5.7.3.6}}
\newlabel{classPaddle_a5e57315f81bf0312c54288352ea02b02}{{5.7.3.6}{35}{topLeftCorner\relax }{subsubsection.5.7.3.6}{}}
\@setckpt{classNet}{
\setcounter{page}{36}
\setcounter{equation}{0}
\setcounter{enumi}{0}
\setcounter{enumii}{0}
\setcounter{enumiii}{0}
\setcounter{enumiv}{0}
\setcounter{footnote}{0}
\setcounter{mpfootnote}{0}
\setcounter{part}{0}
\setcounter{chapter}{5}
\setcounter{section}{7}
\setcounter{subsection}{3}
\setcounter{subsubsection}{6}
\setcounter{paragraph}{0}
\setcounter{subparagraph}{0}
\setcounter{figure}{0}
\setcounter{table}{0}
\setcounter{float@type}{8}
\setcounter{lstlisting}{0}
\setcounter{lstnumber}{1}
\setcounter{Item}{0}
\setcounter{Hfootnote}{0}
\setcounter{section@level}{3}
}
