\relax 
\@writefile{toc}{\contentsline {section}{\numberline {5.3}ComputerPaddle Class Reference}{18}{section.5.3}}
\newlabel{classComputerPaddle}{{5.3}{18}{ComputerPaddle Class Reference\relax }{section.5.3}{}}
\@writefile{toc}{\contentsline {subsection}{\numberline {5.3.1}Constructor \& Destructor Documentation}{19}{subsection.5.3.1}}
\@writefile{toc}{\contentsline {subsubsection}{\numberline {5.3.1.1}ComputerPaddle}{19}{subsubsection.5.3.1.1}}
\newlabel{classComputerPaddle_a04093452888e2046cba873427f69791b}{{5.3.1.1}{19}{ComputerPaddle\relax }{subsubsection.5.3.1.1}{}}
\@writefile{toc}{\contentsline {subsection}{\numberline {5.3.2}Member Function Documentation}{19}{subsection.5.3.2}}
\@writefile{toc}{\contentsline {subsubsection}{\numberline {5.3.2.1}BottomRight}{19}{subsubsection.5.3.2.1}}
\newlabel{classPaddle_a9504681f17bc1265137bdb0694696326}{{5.3.2.1}{19}{BottomRight\relax }{subsubsection.5.3.2.1}{}}
\@writefile{toc}{\contentsline {subsubsection}{\numberline {5.3.2.2}calcCornerPoints}{20}{subsubsection.5.3.2.2}}
\newlabel{classPaddle_ac8e3c821f3feeb09652deca0aa82655b}{{5.3.2.2}{20}{calcCornerPoints\relax }{subsubsection.5.3.2.2}{}}
\@writefile{toc}{\contentsline {subsubsection}{\numberline {5.3.2.3}checkKey}{20}{subsubsection.5.3.2.3}}
\newlabel{classPaddle_a5073e7459f9bc34095b2b4e8cea5ee5e}{{5.3.2.3}{20}{checkKey\relax }{subsubsection.5.3.2.3}{}}
\@writefile{toc}{\contentsline {subsubsection}{\numberline {5.3.2.4}draw}{20}{subsubsection.5.3.2.4}}
\newlabel{classComputerPaddle_a01dfa3c333bee7c3e3e915db23516c6d}{{5.3.2.4}{20}{draw\relax }{subsubsection.5.3.2.4}{}}
\@writefile{toc}{\contentsline {subsubsection}{\numberline {5.3.2.5}getBallPosition}{20}{subsubsection.5.3.2.5}}
\newlabel{classComputerPaddle_aff66d538f79d81323e0de30224615e55}{{5.3.2.5}{20}{getBallPosition\relax }{subsubsection.5.3.2.5}{}}
\@writefile{toc}{\contentsline {subsubsection}{\numberline {5.3.2.6}getPaddleSpeed}{20}{subsubsection.5.3.2.6}}
\newlabel{classComputerPaddle_a572e24204dc1cf6d1ce34f5f9c6f04b7}{{5.3.2.6}{20}{getPaddleSpeed\relax }{subsubsection.5.3.2.6}{}}
\@writefile{toc}{\contentsline {subsubsection}{\numberline {5.3.2.7}getPos}{21}{subsubsection.5.3.2.7}}
\newlabel{classPaddle_a6977ec3bd25532ce4a44a3ed2de9af65}{{5.3.2.7}{21}{getPos\relax }{subsubsection.5.3.2.7}{}}
\@writefile{toc}{\contentsline {subsubsection}{\numberline {5.3.2.8}getSize}{21}{subsubsection.5.3.2.8}}
\newlabel{classPaddle_aaad7b34ed8bd348ace80184ff46592f6}{{5.3.2.8}{21}{getSize\relax }{subsubsection.5.3.2.8}{}}
\@writefile{toc}{\contentsline {subsubsection}{\numberline {5.3.2.9}move}{21}{subsubsection.5.3.2.9}}
\newlabel{classComputerPaddle_afa87fb902e1caee3e63d3561fb4cb78b}{{5.3.2.9}{21}{move\relax }{subsubsection.5.3.2.9}{}}
\@writefile{toc}{\contentsline {subsubsection}{\numberline {5.3.2.10}setDownFlag}{21}{subsubsection.5.3.2.10}}
\newlabel{classPaddle_a851e978ac296832c22de380d2a07fe3f}{{5.3.2.10}{21}{setDownFlag\relax }{subsubsection.5.3.2.10}{}}
\@writefile{toc}{\contentsline {subsubsection}{\numberline {5.3.2.11}setUpFlag}{21}{subsubsection.5.3.2.11}}
\newlabel{classPaddle_a5b9462892ce633d5c3a605f391389cfc}{{5.3.2.11}{21}{setUpFlag\relax }{subsubsection.5.3.2.11}{}}
\@writefile{toc}{\contentsline {subsubsection}{\numberline {5.3.2.12}TopLeft}{22}{subsubsection.5.3.2.12}}
\newlabel{classPaddle_a0aba55a826267d78a407b73d84c64b32}{{5.3.2.12}{22}{TopLeft\relax }{subsubsection.5.3.2.12}{}}
\@writefile{toc}{\contentsline {subsection}{\numberline {5.3.3}Member Data Documentation}{22}{subsection.5.3.3}}
\@writefile{toc}{\contentsline {subsubsection}{\numberline {5.3.3.1}bottomRightCorner}{22}{subsubsection.5.3.3.1}}
\newlabel{classPaddle_a16edfcfdc29191bbb5afa9f090950804}{{5.3.3.1}{22}{bottomRightCorner\relax }{subsubsection.5.3.3.1}{}}
\@writefile{toc}{\contentsline {subsubsection}{\numberline {5.3.3.2}currentBallPos}{22}{subsubsection.5.3.3.2}}
\newlabel{classComputerPaddle_af4b0d85166172fc40b3782f2307881cd}{{5.3.3.2}{22}{currentBallPos\relax }{subsubsection.5.3.3.2}{}}
\@writefile{toc}{\contentsline {subsubsection}{\numberline {5.3.3.3}elapsedTime}{22}{subsubsection.5.3.3.3}}
\newlabel{classComputerPaddle_af3630864949d228dbd2a5f7bb9487960}{{5.3.3.3}{22}{elapsedTime\relax }{subsubsection.5.3.3.3}{}}
\@writefile{toc}{\contentsline {subsubsection}{\numberline {5.3.3.4}origin}{22}{subsubsection.5.3.3.4}}
\newlabel{classPaddle_a05195085442f2ed8722a1e236a32647a}{{5.3.3.4}{22}{origin\relax }{subsubsection.5.3.3.4}{}}
\@writefile{toc}{\contentsline {subsubsection}{\numberline {5.3.3.5}paddleSpeed}{22}{subsubsection.5.3.3.5}}
\newlabel{classPaddle_a89de31427eb9aafb7332d576445d0b68}{{5.3.3.5}{22}{paddleSpeed\relax }{subsubsection.5.3.3.5}{}}
\@writefile{toc}{\contentsline {subsubsection}{\numberline {5.3.3.6}size}{22}{subsubsection.5.3.3.6}}
\newlabel{classPaddle_a11cbfb3d700dc72fc5ea013ae3eaa2a7}{{5.3.3.6}{22}{size\relax }{subsubsection.5.3.3.6}{}}
\@writefile{toc}{\contentsline {subsubsection}{\numberline {5.3.3.7}topLeftCorner}{22}{subsubsection.5.3.3.7}}
\newlabel{classPaddle_a5e57315f81bf0312c54288352ea02b02}{{5.3.3.7}{22}{topLeftCorner\relax }{subsubsection.5.3.3.7}{}}
\@setckpt{classComputerPaddle}{
\setcounter{page}{23}
\setcounter{equation}{0}
\setcounter{enumi}{0}
\setcounter{enumii}{0}
\setcounter{enumiii}{0}
\setcounter{enumiv}{0}
\setcounter{footnote}{0}
\setcounter{mpfootnote}{0}
\setcounter{part}{0}
\setcounter{chapter}{5}
\setcounter{section}{3}
\setcounter{subsection}{3}
\setcounter{subsubsection}{7}
\setcounter{paragraph}{0}
\setcounter{subparagraph}{0}
\setcounter{figure}{0}
\setcounter{table}{0}
\setcounter{float@type}{8}
\setcounter{lstlisting}{0}
\setcounter{lstnumber}{1}
\setcounter{Item}{0}
\setcounter{Hfootnote}{0}
\setcounter{section@level}{3}
}
