\relax 
\@writefile{toc}{\contentsline {section}{\numberline {5.12}ScreenMaster Class Reference}{54}{section.5.12}}
\newlabel{classScreenMaster}{{5.12}{54}{ScreenMaster Class Reference\relax }{section.5.12}{}}
\@writefile{toc}{\contentsline {subsection}{\numberline {5.12.1}Member Function Documentation}{55}{subsection.5.12.1}}
\@writefile{toc}{\contentsline {subsubsection}{\numberline {5.12.1.1}collision}{55}{subsubsection.5.12.1.1}}
\newlabel{classSimulator_a55c9cf5c68734ea797ec73eab6b9d248}{{5.12.1.1}{55}{collision\relax }{subsubsection.5.12.1.1}{}}
\@writefile{toc}{\contentsline {subsubsection}{\numberline {5.12.1.2}drawModel}{55}{subsubsection.5.12.1.2}}
\newlabel{classSimulator_ad47f95a2a5201a46f760c14d63d84725}{{5.12.1.2}{55}{drawModel\relax }{subsubsection.5.12.1.2}{}}
\@writefile{toc}{\contentsline {subsubsection}{\numberline {5.12.1.3}getQueue}{55}{subsubsection.5.12.1.3}}
\newlabel{classSimulator_a8ac1fb25c3e78f14fd672413aeb986e0}{{5.12.1.3}{55}{getQueue\relax }{subsubsection.5.12.1.3}{}}
\@writefile{toc}{\contentsline {subsubsection}{\numberline {5.12.1.4}playerinput}{55}{subsubsection.5.12.1.4}}
\newlabel{classSimulator_a6b6afee2d0e6ccf0e94b4b8bf93efb1b}{{5.12.1.4}{55}{playerinput\relax }{subsubsection.5.12.1.4}{}}
\@writefile{toc}{\contentsline {subsubsection}{\numberline {5.12.1.5}run}{55}{subsubsection.5.12.1.5}}
\newlabel{classSimulator_aa2de7e32b04cc3e8fc60aec23997621b}{{5.12.1.5}{55}{run\relax }{subsubsection.5.12.1.5}{}}
\@writefile{toc}{\contentsline {subsubsection}{\numberline {5.12.1.6}samplesLoaded}{55}{subsubsection.5.12.1.6}}
\newlabel{classAudio_aab14ce14bdef1c8bec00f25ceaa69a87}{{5.12.1.6}{55}{samplesLoaded\relax }{subsubsection.5.12.1.6}{}}
\@writefile{toc}{\contentsline {subsubsection}{\numberline {5.12.1.7}updateModel}{55}{subsubsection.5.12.1.7}}
\newlabel{classSimulator_a78e300570318b9cd65f52b9547dee070}{{5.12.1.7}{55}{updateModel\relax }{subsubsection.5.12.1.7}{}}
\@writefile{toc}{\contentsline {subsection}{\numberline {5.12.2}Member Data Documentation}{56}{subsection.5.12.2}}
\@writefile{toc}{\contentsline {subsubsection}{\numberline {5.12.2.1}bkgrnd\_\discretionary {-}{}{}music\_\discretionary {-}{}{}inst}{56}{subsubsection.5.12.2.1}}
\newlabel{classAudio_af7f18669302755ae29304decbfee72f9}{{5.12.2.1}{56}{bkgrnd\_\-music\_\-inst\relax }{subsubsection.5.12.2.1}{}}
\@writefile{toc}{\contentsline {subsubsection}{\numberline {5.12.2.2}fon}{56}{subsubsection.5.12.2.2}}
\newlabel{classScreenMaster_aa2567ba95d9dd85b337ca770c676a8a1}{{5.12.2.2}{56}{fon\relax }{subsubsection.5.12.2.2}{}}
\@writefile{toc}{\contentsline {subsubsection}{\numberline {5.12.2.3}gameOver}{56}{subsubsection.5.12.2.3}}
\newlabel{classSimulator_ab424ac47e311b946e5d1f31fa1084b33}{{5.12.2.3}{56}{gameOver\relax }{subsubsection.5.12.2.3}{}}
\@writefile{toc}{\contentsline {subsubsection}{\numberline {5.12.2.4}height}{56}{subsubsection.5.12.2.4}}
\newlabel{classScreenMaster_af84ef8d532a9d5d652a92798b9c332ce}{{5.12.2.4}{56}{height\relax }{subsubsection.5.12.2.4}{}}
\@writefile{toc}{\contentsline {subsubsection}{\numberline {5.12.2.5}p\_\discretionary {-}{}{}hit\_\discretionary {-}{}{}inst}{56}{subsubsection.5.12.2.5}}
\newlabel{classAudio_ac2dd6ca92b1738fe452a941214458688}{{5.12.2.5}{56}{p\_\-hit\_\-inst\relax }{subsubsection.5.12.2.5}{}}
\@writefile{toc}{\contentsline {subsubsection}{\numberline {5.12.2.6}score\_\discretionary {-}{}{}inst}{56}{subsubsection.5.12.2.6}}
\newlabel{classAudio_a169a86b3d312f2bf0e0a2e85d6980398}{{5.12.2.6}{56}{score\_\-inst\relax }{subsubsection.5.12.2.6}{}}
\@writefile{toc}{\contentsline {subsubsection}{\numberline {5.12.2.7}w\_\discretionary {-}{}{}hit\_\discretionary {-}{}{}inst}{56}{subsubsection.5.12.2.7}}
\newlabel{classAudio_a2c69165789e43bc04b7025be913b7e33}{{5.12.2.7}{56}{w\_\-hit\_\-inst\relax }{subsubsection.5.12.2.7}{}}
\@writefile{toc}{\contentsline {subsubsection}{\numberline {5.12.2.8}width}{56}{subsubsection.5.12.2.8}}
\newlabel{classScreenMaster_a292e28cc491a34896d20e07634e9d818}{{5.12.2.8}{56}{width\relax }{subsubsection.5.12.2.8}{}}
\@setckpt{classScreenMaster}{
\setcounter{page}{57}
\setcounter{equation}{0}
\setcounter{enumi}{0}
\setcounter{enumii}{0}
\setcounter{enumiii}{0}
\setcounter{enumiv}{0}
\setcounter{footnote}{0}
\setcounter{mpfootnote}{0}
\setcounter{part}{0}
\setcounter{chapter}{5}
\setcounter{section}{12}
\setcounter{subsection}{2}
\setcounter{subsubsection}{8}
\setcounter{paragraph}{0}
\setcounter{subparagraph}{0}
\setcounter{figure}{0}
\setcounter{table}{0}
\setcounter{float@type}{8}
\setcounter{lstlisting}{0}
\setcounter{lstnumber}{1}
\setcounter{Item}{0}
\setcounter{Hfootnote}{0}
\setcounter{section@level}{3}
}
