\relax 
\@writefile{toc}{\contentsline {section}{\numberline {5.6}MenuMaster Class Reference}{26}{section.5.6}}
\newlabel{classMenuMaster}{{5.6}{26}{MenuMaster Class Reference\relax }{section.5.6}{}}
\@writefile{toc}{\contentsline {subsection}{\numberline {5.6.1}Constructor \& Destructor Documentation}{27}{subsection.5.6.1}}
\@writefile{toc}{\contentsline {subsubsection}{\numberline {5.6.1.1}MenuMaster}{27}{subsubsection.5.6.1.1}}
\newlabel{classMenuMaster_af71619455cdd77cfcd323eadce2fe8d3}{{5.6.1.1}{27}{MenuMaster\relax }{subsubsection.5.6.1.1}{}}
\@writefile{toc}{\contentsline {subsection}{\numberline {5.6.2}Member Function Documentation}{27}{subsection.5.6.2}}
\@writefile{toc}{\contentsline {subsubsection}{\numberline {5.6.2.1}collision}{27}{subsubsection.5.6.2.1}}
\newlabel{classMenuMaster_a6afb3624c5afecad70c3edc93251ff94}{{5.6.2.1}{27}{collision\relax }{subsubsection.5.6.2.1}{}}
\@writefile{toc}{\contentsline {subsubsection}{\numberline {5.6.2.2}draw}{27}{subsubsection.5.6.2.2}}
\newlabel{classMenuMaster_ac246108fa5eb258a7401623bb01d54d1}{{5.6.2.2}{27}{draw\relax }{subsubsection.5.6.2.2}{}}
\@writefile{toc}{\contentsline {subsubsection}{\numberline {5.6.2.3}drawModel}{27}{subsubsection.5.6.2.3}}
\newlabel{classMenuMaster_a06aa97bcc1deab277ea05ec29fafc12c}{{5.6.2.3}{27}{drawModel\relax }{subsubsection.5.6.2.3}{}}
\@writefile{toc}{\contentsline {subsubsection}{\numberline {5.6.2.4}getQueue}{28}{subsubsection.5.6.2.4}}
\newlabel{classSimulator_a8ac1fb25c3e78f14fd672413aeb986e0}{{5.6.2.4}{28}{getQueue\relax }{subsubsection.5.6.2.4}{}}
\@writefile{toc}{\contentsline {subsubsection}{\numberline {5.6.2.5}move}{28}{subsubsection.5.6.2.5}}
\newlabel{classMenuMaster_ade9b6fc2b5ee8b43ffd06a12378c5f2e}{{5.6.2.5}{28}{move\relax }{subsubsection.5.6.2.5}{}}
\@writefile{toc}{\contentsline {subsubsection}{\numberline {5.6.2.6}playerinput}{28}{subsubsection.5.6.2.6}}
\newlabel{classMenuMaster_a2c8cb953b760284d78a8706585470eab}{{5.6.2.6}{28}{playerinput\relax }{subsubsection.5.6.2.6}{}}
\@writefile{toc}{\contentsline {subsubsection}{\numberline {5.6.2.7}run}{28}{subsubsection.5.6.2.7}}
\newlabel{classSimulator_aa2de7e32b04cc3e8fc60aec23997621b}{{5.6.2.7}{28}{run\relax }{subsubsection.5.6.2.7}{}}
\@writefile{toc}{\contentsline {subsubsection}{\numberline {5.6.2.8}runMenu}{28}{subsubsection.5.6.2.8}}
\newlabel{classMenuMaster_a993414116ff7cdb39c1e705ebc66a368}{{5.6.2.8}{28}{runMenu\relax }{subsubsection.5.6.2.8}{}}
\@writefile{toc}{\contentsline {subsubsection}{\numberline {5.6.2.9}updateModel}{29}{subsubsection.5.6.2.9}}
\newlabel{classMenuMaster_a59b65485c18dbc13544828724df7d58b}{{5.6.2.9}{29}{updateModel\relax }{subsubsection.5.6.2.9}{}}
\@writefile{toc}{\contentsline {subsection}{\numberline {5.6.3}Member Data Documentation}{29}{subsection.5.6.3}}
\@writefile{toc}{\contentsline {subsubsection}{\numberline {5.6.3.1}disp}{29}{subsubsection.5.6.3.1}}
\newlabel{classMenuMaster_a4f4ff939277d1f6b506bb3458b2729a3}{{5.6.3.1}{29}{disp\relax }{subsubsection.5.6.3.1}{}}
\@writefile{toc}{\contentsline {subsubsection}{\numberline {5.6.3.2}fon}{29}{subsubsection.5.6.3.2}}
\newlabel{classMenuMaster_a92157786c4b5f66bce854f7ef7167ab5}{{5.6.3.2}{29}{fon\relax }{subsubsection.5.6.3.2}{}}
\@writefile{toc}{\contentsline {subsubsection}{\numberline {5.6.3.3}gameOver}{29}{subsubsection.5.6.3.3}}
\newlabel{classSimulator_ab424ac47e311b946e5d1f31fa1084b33}{{5.6.3.3}{29}{gameOver\relax }{subsubsection.5.6.3.3}{}}
\@writefile{toc}{\contentsline {subsubsection}{\numberline {5.6.3.4}height}{29}{subsubsection.5.6.3.4}}
\newlabel{classMenuMaster_a0fb96771fb220f9003744293524f5459}{{5.6.3.4}{29}{height\relax }{subsubsection.5.6.3.4}{}}
\@writefile{toc}{\contentsline {subsubsection}{\numberline {5.6.3.5}mode}{29}{subsubsection.5.6.3.5}}
\newlabel{classMenuMaster_aaaf77468eb3fa3e4a42927faac5aea66}{{5.6.3.5}{29}{mode\relax }{subsubsection.5.6.3.5}{}}
\@writefile{toc}{\contentsline {subsubsection}{\numberline {5.6.3.6}o1}{29}{subsubsection.5.6.3.6}}
\newlabel{classMenuMaster_adf84044dadc7a5fefb73a214a699732a}{{5.6.3.6}{29}{o1\relax }{subsubsection.5.6.3.6}{}}
\@writefile{toc}{\contentsline {subsubsection}{\numberline {5.6.3.7}o2}{29}{subsubsection.5.6.3.7}}
\newlabel{classMenuMaster_a43b9e6fa66aceaadfd5515354fe47222}{{5.6.3.7}{29}{o2\relax }{subsubsection.5.6.3.7}{}}
\@writefile{toc}{\contentsline {subsubsection}{\numberline {5.6.3.8}oneKeyPress}{29}{subsubsection.5.6.3.8}}
\newlabel{classMenuMaster_a20b45dbefda5fa149f24c8c2923653e2}{{5.6.3.8}{29}{oneKeyPress\relax }{subsubsection.5.6.3.8}{}}
\@writefile{toc}{\contentsline {subsubsection}{\numberline {5.6.3.9}opt1}{29}{subsubsection.5.6.3.9}}
\newlabel{classMenuMaster_a9e9e965af74019ce1d8126914dfc29d4}{{5.6.3.9}{29}{opt1\relax }{subsubsection.5.6.3.9}{}}
\@writefile{toc}{\contentsline {subsubsection}{\numberline {5.6.3.10}opt2}{29}{subsubsection.5.6.3.10}}
\newlabel{classMenuMaster_a259d1b6b96ea5bbe7bd43d772bdfbede}{{5.6.3.10}{29}{opt2\relax }{subsubsection.5.6.3.10}{}}
\@writefile{toc}{\contentsline {subsubsection}{\numberline {5.6.3.11}t}{29}{subsubsection.5.6.3.11}}
\newlabel{classMenuMaster_a9b0c4c26922afaa487cd13b36bac01e4}{{5.6.3.11}{29}{t\relax }{subsubsection.5.6.3.11}{}}
\@writefile{toc}{\contentsline {subsubsection}{\numberline {5.6.3.12}title}{30}{subsubsection.5.6.3.12}}
\newlabel{classMenuMaster_aef8bf91eb1a687c4813f7b808b5c4663}{{5.6.3.12}{30}{title\relax }{subsubsection.5.6.3.12}{}}
\@writefile{toc}{\contentsline {subsubsection}{\numberline {5.6.3.13}twoKeyPress}{30}{subsubsection.5.6.3.13}}
\newlabel{classMenuMaster_acb165dae7008740acd3dc5677278a389}{{5.6.3.13}{30}{twoKeyPress\relax }{subsubsection.5.6.3.13}{}}
\@writefile{toc}{\contentsline {subsubsection}{\numberline {5.6.3.14}width}{30}{subsubsection.5.6.3.14}}
\newlabel{classMenuMaster_afa115f3d38526913569647accb315b88}{{5.6.3.14}{30}{width\relax }{subsubsection.5.6.3.14}{}}
\@setckpt{classMenuMaster}{
\setcounter{page}{31}
\setcounter{equation}{0}
\setcounter{enumi}{0}
\setcounter{enumii}{0}
\setcounter{enumiii}{0}
\setcounter{enumiv}{0}
\setcounter{footnote}{0}
\setcounter{mpfootnote}{0}
\setcounter{part}{0}
\setcounter{chapter}{5}
\setcounter{section}{6}
\setcounter{subsection}{3}
\setcounter{subsubsection}{14}
\setcounter{paragraph}{0}
\setcounter{subparagraph}{0}
\setcounter{figure}{0}
\setcounter{table}{0}
\setcounter{float@type}{8}
\setcounter{lstlisting}{0}
\setcounter{lstnumber}{1}
\setcounter{Item}{0}
\setcounter{Hfootnote}{0}
\setcounter{section@level}{3}
}
