\relax 
\@writefile{toc}{\contentsline {section}{\numberline {6.5}ComputerPaddle.cc File Reference}{71}{section.6.5}}
\newlabel{ComputerPaddle_8cc}{{6.5}{71}{ComputerPaddle.cc File Reference\relax }{section.6.5}{}}
\@setckpt{ComputerPaddle_8cc}{
\setcounter{page}{72}
\setcounter{equation}{0}
\setcounter{enumi}{0}
\setcounter{enumii}{0}
\setcounter{enumiii}{0}
\setcounter{enumiv}{0}
\setcounter{footnote}{0}
\setcounter{mpfootnote}{0}
\setcounter{part}{0}
\setcounter{chapter}{6}
\setcounter{section}{5}
\setcounter{subsection}{0}
\setcounter{subsubsection}{0}
\setcounter{paragraph}{0}
\setcounter{subparagraph}{0}
\setcounter{figure}{0}
\setcounter{table}{0}
\setcounter{float@type}{8}
\setcounter{lstlisting}{0}
\setcounter{lstnumber}{1}
\setcounter{Item}{0}
\setcounter{Hfootnote}{0}
\setcounter{section@level}{1}
}
