\relax 
\@writefile{toc}{\contentsline {section}{\numberline {6.10}main-\/game.cc File Reference}{76}{section.6.10}}
\newlabel{main-game_8cc}{{6.10}{76}{main-\/game.cc File Reference\relax }{section.6.10}{}}
\@writefile{toc}{\contentsline {subsection}{\numberline {6.10.1}Detailed Description}{76}{subsection.6.10.1}}
\@writefile{toc}{\contentsline {subsection}{\numberline {6.10.2}Function Documentation}{76}{subsection.6.10.2}}
\@writefile{toc}{\contentsline {subsubsection}{\numberline {6.10.2.1}main}{76}{subsubsection.6.10.2.1}}
\newlabel{main-game_8cc_ae66f6b31b5ad750f1fe042a706a4e3d4}{{6.10.2.1}{76}{main\relax }{subsubsection.6.10.2.1}{}}
\@setckpt{main-game_8cc}{
\setcounter{page}{77}
\setcounter{equation}{0}
\setcounter{enumi}{0}
\setcounter{enumii}{0}
\setcounter{enumiii}{0}
\setcounter{enumiv}{0}
\setcounter{footnote}{0}
\setcounter{mpfootnote}{0}
\setcounter{part}{0}
\setcounter{chapter}{6}
\setcounter{section}{10}
\setcounter{subsection}{2}
\setcounter{subsubsection}{1}
\setcounter{paragraph}{0}
\setcounter{subparagraph}{0}
\setcounter{figure}{0}
\setcounter{table}{0}
\setcounter{float@type}{8}
\setcounter{lstlisting}{0}
\setcounter{lstnumber}{1}
\setcounter{Item}{0}
\setcounter{Hfootnote}{0}
\setcounter{section@level}{3}
}
