\relax 
\@writefile{toc}{\contentsline {section}{\numberline {6.15}Paddle.h File Reference}{81}{section.6.15}}
\newlabel{Paddle_8h}{{6.15}{81}{Paddle.h File Reference\relax }{section.6.15}{}}
\@writefile{toc}{\contentsline {subsection}{\numberline {6.15.1}Detailed Description}{81}{subsection.6.15.1}}
\@setckpt{Paddle_8h}{
\setcounter{page}{82}
\setcounter{equation}{0}
\setcounter{enumi}{0}
\setcounter{enumii}{0}
\setcounter{enumiii}{0}
\setcounter{enumiv}{0}
\setcounter{footnote}{0}
\setcounter{mpfootnote}{0}
\setcounter{part}{0}
\setcounter{chapter}{6}
\setcounter{section}{15}
\setcounter{subsection}{1}
\setcounter{subsubsection}{0}
\setcounter{paragraph}{0}
\setcounter{subparagraph}{0}
\setcounter{figure}{0}
\setcounter{table}{0}
\setcounter{float@type}{8}
\setcounter{lstlisting}{0}
\setcounter{lstnumber}{1}
\setcounter{Item}{0}
\setcounter{Hfootnote}{0}
\setcounter{section@level}{2}
}
