\relax 
\@writefile{toc}{\contentsline {section}{\numberline {6.17}PlayerPaddle.h File Reference}{83}{section.6.17}}
\newlabel{PlayerPaddle_8h}{{6.17}{83}{PlayerPaddle.h File Reference\relax }{section.6.17}{}}
\@writefile{toc}{\contentsline {subsection}{\numberline {6.17.1}Detailed Description}{83}{subsection.6.17.1}}
\@setckpt{PlayerPaddle_8h}{
\setcounter{page}{84}
\setcounter{equation}{0}
\setcounter{enumi}{0}
\setcounter{enumii}{0}
\setcounter{enumiii}{0}
\setcounter{enumiv}{0}
\setcounter{footnote}{0}
\setcounter{mpfootnote}{0}
\setcounter{part}{0}
\setcounter{chapter}{6}
\setcounter{section}{17}
\setcounter{subsection}{1}
\setcounter{subsubsection}{0}
\setcounter{paragraph}{0}
\setcounter{subparagraph}{0}
\setcounter{figure}{0}
\setcounter{table}{0}
\setcounter{float@type}{8}
\setcounter{lstlisting}{0}
\setcounter{lstnumber}{1}
\setcounter{Item}{0}
\setcounter{Hfootnote}{0}
\setcounter{section@level}{2}
}
