\relax 
\ifx\hyper@anchor\@undefined
\global \let \oldcontentsline\contentsline
\gdef \contentsline#1#2#3#4{\oldcontentsline{#1}{#2}{#3}}
\global \let \oldnewlabel\newlabel
\gdef \newlabel#1#2{\newlabelxx{#1}#2}
\gdef \newlabelxx#1#2#3#4#5#6{\oldnewlabel{#1}{{#2}{#3}}}
\AtEndDocument{\let \contentsline\oldcontentsline
\let \newlabel\oldnewlabel}
\else
\global \let \hyper@last\relax 
\fi

\@writefile{toc}{\contentsline {chapter}{\numberline {1}Bug List}{1}{chapter.1}}
\@writefile{lof}{\addvspace {10\p@ }}
\@writefile{lot}{\addvspace {10\p@ }}
\newlabel{bug}{{1}{1}{Bug List\relax }{chapter.1}{}}
\newlabel{bug__bug000001}{{1}{1}{Bug List\relax }{chapter.1}{}}
\newlabel{bug__bug000002}{{1}{1}{Bug List\relax }{chapter.1}{}}
\newlabel{bug__bug000003}{{1}{1}{Bug List\relax }{chapter.1}{}}
\newlabel{bug__bug000004}{{1}{1}{Bug List\relax }{chapter.1}{}}
\newlabel{bug__bug000005}{{1}{1}{Bug List\relax }{chapter.1}{}}
\newlabel{bug__bug000006}{{1}{1}{Bug List\relax }{chapter.1}{}}
\newlabel{bug__bug000007}{{1}{1}{Bug List\relax }{chapter.1}{}}
\newlabel{bug__bug000008}{{1}{1}{Bug List\relax }{chapter.1}{}}
\newlabel{bug__bug000009}{{1}{1}{Bug List\relax }{chapter.1}{}}
\newlabel{bug__bug000010}{{1}{1}{Bug List\relax }{chapter.1}{}}
\newlabel{bug__bug000011}{{1}{1}{Bug List\relax }{chapter.1}{}}
\newlabel{bug__bug000012}{{1}{1}{Bug List\relax }{chapter.1}{}}
\newlabel{bug__bug000013}{{1}{1}{Bug List\relax }{chapter.1}{}}
\newlabel{bug__bug000014}{{1}{1}{Bug List\relax }{chapter.1}{}}
\@writefile{toc}{\contentsline {chapter}{\numberline {2}Class Index}{3}{chapter.2}}
\@writefile{lof}{\addvspace {10\p@ }}
\@writefile{lot}{\addvspace {10\p@ }}
\@writefile{toc}{\contentsline {section}{\numberline {2.1}Class Hierarchy}{3}{section.2.1}}
\@writefile{toc}{\contentsline {chapter}{\numberline {3}Class Index}{5}{chapter.3}}
\@writefile{lof}{\addvspace {10\p@ }}
\@writefile{lot}{\addvspace {10\p@ }}
\@writefile{toc}{\contentsline {section}{\numberline {3.1}Class List}{5}{section.3.1}}
\@writefile{toc}{\contentsline {chapter}{\numberline {4}File Index}{7}{chapter.4}}
\@writefile{lof}{\addvspace {10\p@ }}
\@writefile{lot}{\addvspace {10\p@ }}
\@writefile{toc}{\contentsline {section}{\numberline {4.1}File List}{7}{section.4.1}}
\@writefile{toc}{\contentsline {chapter}{\numberline {5}Class Documentation}{9}{chapter.5}}
\@writefile{lof}{\addvspace {10\p@ }}
\@writefile{lot}{\addvspace {10\p@ }}
\@writefile{toc}{\contentsline {section}{\numberline {5.1}Audio Class Reference}{9}{section.5.1}}
\newlabel{classAudio}{{5.1}{9}{Audio Class Reference\relax }{section.5.1}{}}
\@writefile{toc}{\contentsline {subsection}{\numberline {5.1.1}Constructor \& Destructor Documentation}{10}{subsection.5.1.1}}
\@writefile{toc}{\contentsline {subsubsection}{\numberline {5.1.1.1}Audio}{10}{subsubsection.5.1.1.1}}
\newlabel{classAudio_aa9d3935a2b91ab4b825bc0cb05f245ea}{{5.1.1.1}{10}{Audio\relax }{subsubsection.5.1.1.1}{}}
\@writefile{toc}{\contentsline {subsubsection}{\numberline {5.1.1.2}$\sim $Audio}{10}{subsubsection.5.1.1.2}}
\newlabel{classAudio_ae8f54deecb5f48511aaab469e80294d6}{{5.1.1.2}{10}{$\sim $Audio\relax }{subsubsection.5.1.1.2}{}}
\@writefile{toc}{\contentsline {subsection}{\numberline {5.1.2}Member Function Documentation}{10}{subsection.5.1.2}}
\@writefile{toc}{\contentsline {subsubsection}{\numberline {5.1.2.1}samplesLoaded}{10}{subsubsection.5.1.2.1}}
\newlabel{classAudio_aab14ce14bdef1c8bec00f25ceaa69a87}{{5.1.2.1}{10}{samplesLoaded\relax }{subsubsection.5.1.2.1}{}}
\@writefile{toc}{\contentsline {subsection}{\numberline {5.1.3}Member Data Documentation}{10}{subsection.5.1.3}}
\@writefile{toc}{\contentsline {subsubsection}{\numberline {5.1.3.1}bkgrnd\_\discretionary {-}{}{}music}{10}{subsubsection.5.1.3.1}}
\newlabel{classAudio_a65f183800deab0be8f909812447e4564}{{5.1.3.1}{10}{bkgrnd\_\-music\relax }{subsubsection.5.1.3.1}{}}
\@writefile{toc}{\contentsline {subsubsection}{\numberline {5.1.3.2}bkgrnd\_\discretionary {-}{}{}music\_\discretionary {-}{}{}inst}{10}{subsubsection.5.1.3.2}}
\newlabel{classAudio_af7f18669302755ae29304decbfee72f9}{{5.1.3.2}{10}{bkgrnd\_\-music\_\-inst\relax }{subsubsection.5.1.3.2}{}}
\@writefile{toc}{\contentsline {subsubsection}{\numberline {5.1.3.3}p\_\discretionary {-}{}{}hit}{10}{subsubsection.5.1.3.3}}
\newlabel{classAudio_a55ea9440ed84eebd7df2d4d983f96ec6}{{5.1.3.3}{10}{p\_\-hit\relax }{subsubsection.5.1.3.3}{}}
\@writefile{toc}{\contentsline {subsubsection}{\numberline {5.1.3.4}p\_\discretionary {-}{}{}hit\_\discretionary {-}{}{}inst}{10}{subsubsection.5.1.3.4}}
\newlabel{classAudio_ac2dd6ca92b1738fe452a941214458688}{{5.1.3.4}{10}{p\_\-hit\_\-inst\relax }{subsubsection.5.1.3.4}{}}
\@writefile{toc}{\contentsline {subsubsection}{\numberline {5.1.3.5}score}{11}{subsubsection.5.1.3.5}}
\newlabel{classAudio_a28efa21ea633c6ba333ef34ed91c1811}{{5.1.3.5}{11}{score\relax }{subsubsection.5.1.3.5}{}}
\@writefile{toc}{\contentsline {subsubsection}{\numberline {5.1.3.6}score\_\discretionary {-}{}{}inst}{11}{subsubsection.5.1.3.6}}
\newlabel{classAudio_a169a86b3d312f2bf0e0a2e85d6980398}{{5.1.3.6}{11}{score\_\-inst\relax }{subsubsection.5.1.3.6}{}}
\@writefile{toc}{\contentsline {subsubsection}{\numberline {5.1.3.7}w\_\discretionary {-}{}{}hit}{11}{subsubsection.5.1.3.7}}
\newlabel{classAudio_a46fc0946653e96f37258551526d5a29c}{{5.1.3.7}{11}{w\_\-hit\relax }{subsubsection.5.1.3.7}{}}
\@writefile{toc}{\contentsline {subsubsection}{\numberline {5.1.3.8}w\_\discretionary {-}{}{}hit\_\discretionary {-}{}{}inst}{11}{subsubsection.5.1.3.8}}
\newlabel{classAudio_a2c69165789e43bc04b7025be913b7e33}{{5.1.3.8}{11}{w\_\-hit\_\-inst\relax }{subsubsection.5.1.3.8}{}}
\@input{classBall.aux}
\@input{classComputerPaddle.aux}
\@input{classDisplay.aux}
\@input{classDrawable.aux}
\@input{classMenuMaster.aux}
\@input{classNet.aux}
\@input{classPaddle.aux}
\@input{classPlayerPaddle.aux}
\@input{classPoint.aux}
\@input{classScore.aux}
\@input{classScreenMaster.aux}
\@input{classSimulator.aux}
\@input{classTests.aux}
\@input{classUpdateable.aux}
\@input{classVector.aux}
\@writefile{toc}{\contentsline {chapter}{\numberline {6}File Documentation}{67}{chapter.6}}
\@writefile{lof}{\addvspace {10\p@ }}
\@writefile{lot}{\addvspace {10\p@ }}
\@writefile{toc}{\contentsline {section}{\numberline {6.1}Audio.cc File Reference}{67}{section.6.1}}
\newlabel{Audio_8cc}{{6.1}{67}{Audio.cc File Reference\relax }{section.6.1}{}}
\@input{Audio_8h.aux}
\@input{Ball_8cc.aux}
\@input{Ball_8h.aux}
\@input{ComputerPaddle_8cc.aux}
\@input{ComputerPaddle_8h.aux}
\@input{Display_8cc.aux}
\@input{Display_8h.aux}
\@input{Drawable_8h.aux}
\@input{main-game_8cc.aux}
\@input{MenuMaster_8cc.aux}
\@input{MenuMaster_8h.aux}
\@input{Net_8h.aux}
\@input{Paddle_8cc.aux}
\@input{Paddle_8h.aux}
\@input{PlayerPaddle_8cc.aux}
\@input{PlayerPaddle_8h.aux}
\@input{Point_8h.aux}
\@input{Score_8cc.aux}
\@input{Score_8h.aux}
\@input{ScreenMaster_8cc.aux}
\@input{ScreenMaster_8h.aux}
\@input{Simulator_8cc.aux}
\@input{Simulator_8h.aux}
\@input{testpong_8cc.aux}
\@input{tests_8h.aux}
\@input{Updateable_8h.aux}
\@input{Vector_8h.aux}
