\relax 
\@writefile{toc}{\contentsline {section}{\numberline {6.21}ScreenMaster.cc File Reference}{87}{section.6.21}}
\newlabel{ScreenMaster_8cc}{{6.21}{87}{ScreenMaster.cc File Reference\relax }{section.6.21}{}}
\@setckpt{ScreenMaster_8cc}{
\setcounter{page}{88}
\setcounter{equation}{0}
\setcounter{enumi}{0}
\setcounter{enumii}{0}
\setcounter{enumiii}{0}
\setcounter{enumiv}{0}
\setcounter{footnote}{0}
\setcounter{mpfootnote}{0}
\setcounter{part}{0}
\setcounter{chapter}{6}
\setcounter{section}{21}
\setcounter{subsection}{0}
\setcounter{subsubsection}{0}
\setcounter{paragraph}{0}
\setcounter{subparagraph}{0}
\setcounter{figure}{0}
\setcounter{table}{0}
\setcounter{float@type}{8}
\setcounter{lstlisting}{0}
\setcounter{lstnumber}{1}
\setcounter{Item}{0}
\setcounter{Hfootnote}{0}
\setcounter{section@level}{1}
}
