\relax 
\@writefile{toc}{\contentsline {section}{\numberline {6.23}Simulator.cc File Reference}{89}{section.6.23}}
\newlabel{Simulator_8cc}{{6.23}{89}{Simulator.cc File Reference\relax }{section.6.23}{}}
\@setckpt{Simulator_8cc}{
\setcounter{page}{90}
\setcounter{equation}{0}
\setcounter{enumi}{0}
\setcounter{enumii}{0}
\setcounter{enumiii}{0}
\setcounter{enumiv}{0}
\setcounter{footnote}{0}
\setcounter{mpfootnote}{0}
\setcounter{part}{0}
\setcounter{chapter}{6}
\setcounter{section}{23}
\setcounter{subsection}{0}
\setcounter{subsubsection}{0}
\setcounter{paragraph}{0}
\setcounter{subparagraph}{0}
\setcounter{figure}{0}
\setcounter{table}{0}
\setcounter{float@type}{8}
\setcounter{lstlisting}{0}
\setcounter{lstnumber}{1}
\setcounter{Item}{0}
\setcounter{Hfootnote}{0}
\setcounter{section@level}{1}
}
