\relax 
\@writefile{toc}{\contentsline {section}{\numberline {6.25}testpong.cc File Reference}{91}{section.6.25}}
\newlabel{testpong_8cc}{{6.25}{91}{testpong.cc File Reference\relax }{section.6.25}{}}
\@writefile{toc}{\contentsline {subsection}{\numberline {6.25.1}Function Documentation}{91}{subsection.6.25.1}}
\@writefile{toc}{\contentsline {subsubsection}{\numberline {6.25.1.1}main}{91}{subsubsection.6.25.1.1}}
\newlabel{testpong_8cc_ae66f6b31b5ad750f1fe042a706a4e3d4}{{6.25.1.1}{91}{main\relax }{subsubsection.6.25.1.1}{}}
\@setckpt{testpong_8cc}{
\setcounter{page}{92}
\setcounter{equation}{0}
\setcounter{enumi}{0}
\setcounter{enumii}{0}
\setcounter{enumiii}{0}
\setcounter{enumiv}{0}
\setcounter{footnote}{0}
\setcounter{mpfootnote}{0}
\setcounter{part}{0}
\setcounter{chapter}{6}
\setcounter{section}{25}
\setcounter{subsection}{1}
\setcounter{subsubsection}{1}
\setcounter{paragraph}{0}
\setcounter{subparagraph}{0}
\setcounter{figure}{0}
\setcounter{table}{0}
\setcounter{float@type}{8}
\setcounter{lstlisting}{0}
\setcounter{lstnumber}{1}
\setcounter{Item}{0}
\setcounter{Hfootnote}{0}
\setcounter{section@level}{3}
}
